version: 1
creator: callgrind-3.7.0
pid: 15111
cmd:  ./out.exe ../test_valid_png_images/Sample-png-image-30mb.png
part: 1


desc: I1 cache: 
desc: D1 cache: 
desc: LL cache: 

desc: Timerange: Basic block 0 - 464003202
desc: Trigger: Program termination

positions: line
events: Ir
summary: 3713706272


ob=(5) /vagrant/langsec+expliot/working_prototype/out.exe
fl=(20) /vagrant/libpng_/libpng/pngread.c
fn=(5536) png_destroy_read_struct
1066 5
fi=(18) /usr/include/bits/stdio2.h
98 6
cob=(3) /lib32/libc-2.15.so
cfi=(3) ???
cfn=(4040) __fprintf_chk
calls=1 -98 
* 1016
fe=(20)
1067 1
+8 2
+1 2
-8 1
+10 2
+1 2
-11 1
+13 2
+4 2
+1 1
+3 4
cfn=(5538) png_read_destroy
calls=1 +46 
* 766060
+2 2
+3 5
cfi=(23) /vagrant/libpng_/libpng/png.c
cfn=(4878) png_free_data
calls=1 322 
* 1111
+4 5
cfi=(21) /vagrant/libpng_/libpng/pngmem.c
cfn=(5596) png_destroy_struct_2
calls=1 376 
* 158
+5 2
+3 2
+14 2
+3 5
cfi=(21)
cfn=(5596)
calls=1 376 
* 156
+5 2
+2 6

fn=(4032) png_create_read_struct
21 1
+3 12
cfn=(4034) png_create_read_struct_2
calls=1 +9 
* 12336
+2 2

fn=(5538)
1135 8
fi=(18)
98 6
cob=(3)
cfi=(3)
cfn=(4040)
calls=1 -98 
* 1072
fe=(20)
1147 2
+1 3
cfi=(23)
cfn=(5540) png_info_destroy
calls=1 570 
* 763186
+2 2
+3 4
cfi=(21)
cfn=(5082) png_free
calls=1 464 
* 155
+1 4
cfi=(21)
cfn=(5082)
calls=1 464 
* 155
+1 4
cfi=(21)
cfn=(5082)
calls=1 464 
* 278
+2 4
cfi=(21)
cfn=(5082)
calls=1 464 
* 9
+1 4
cfi=(21)
cfn=(5082)
calls=1 464 
* 9
+3 4
cfi=(21)
cfn=(5082)
calls=1 464 
* 9
+3 4
cfi=(21)
cfn=(5082)
calls=1 464 
* 9
+1 4
cfi=(21)
cfn=(5082)
calls=1 464 
* 9
+3 2
+2 4
+9 2
+2 4
+9 2
+2 1
+8 2
+11 2
+10 2
+13 4
cfi=(21)
cfn=(5082)
calls=1 464 
* 9
+3 3
cfi=(9) ???
cfn=(5590) inflateEnd
calls=1 0 
* 748
+2 4
cfi=(21)
cfn=(5082)
calls=1 464 
* 9
+5 4
cfi=(21)
cfn=(5082)
calls=1 464 
* 9
fi=(22) /usr/include/bits/string3.h
52 44
fe=(20)
1255 1
+1 1
+1 2
+2 2
fi=(22)
85 189
fe=(20)
1264 1
+1 1
+1 2
+2 2
fi=(22)
52 54
fe=(20)
1275 6

fn=(5004) png_read_row
539 19824
+7 5664
fi=(18)
98 22656
cob=(3)
cfi=(3)
cfn=(4040)
calls=2832 -98 
* 5158032
fe=(20)
548 5664
+37 5664
+75 5664
+3 5664
+1 5664
+11 2832
+7 2832
-15 8053
+6 1506
cfi=(26) /vagrant/libpng_/libpng/pngrutil.c
cfn=(4818) png_crc_finish
calls=502 95 
* 906634
+2 2008
cfi=(25) /vagrant/libpng_/libpng/pngrio.c
cfn=(4776) png_read_data
calls=502 28 
* 786635
+1 1004
cfi=(26)
cfn=(4788) png_get_uint_32
calls=502 45 
* 6024
* 502
+2 1004
+3 1004
cfi=(23)
cfn=(4790) png_reset_crc
calls=502 188 
* 11546
+1 2008
cfi=(26)
cfn=(4794) png_crc_read
calls=502 84 
* 834324
+1 2008
cob=(3)
cfi=(3)
cfn=(4600) 0x001481c0
calls=502 0 
* 13052
* 1004
-14 13563
+17 8038
+1 8038
+1 8038
+1 503
+1 2515
cfi=(26)
cfn=(4794)
calls=503 84 
* 28073489
* 17580
cfi=(26)
cfn=(4794)
calls=3516 84 
* 197736407
+2 8038
+2 16076
cfi=(9)
cfn=(5022) inflate
calls=4019 0 
* 2795105178
* 20
cfi=(9)
cfn=(5022)
calls=5 0 
* 1061253
+1 8048
+2 6
+3 1
+1 1
+1 1
+2 8046
+4 8046
+2 5664
+1 5664
+1 5664
+1 5664
+1 5664
+2 2832
-1 2832
+1 8496
+2 11328
+1 31152
cfi=(26)
cfn=(5158) png_read_filter_row
calls=2832 2667 
* 630581818
+4 25488
cfi=(21)
cfn=(5162) png_memcpy_check
calls=2832 520 
* 15148368
+4 5664
+8 5664
+5 5664
+20 5664
+1 14160
cfi=(26)
cfn=(5184) png_combine_row
calls=2832 2232 
* 29240688
+1 5664
+3 5664
cfi=(26)
cfn=(5198) png_read_finish_row
calls=2832 2790 
* 2888735
+2 8496
+2 16992

fn=(4774) png_read_info
301 6
fi=(18)
98 6
cob=(3)
cfi=(3)
cfn=(4040)
calls=1 -98 
* 1054
fe=(20)
304 3
+2 1
+1 2
+2 6
cfi=(25)
cfn=(4776)
calls=1 28 
* 1744
+1 1
+2 6
cfi=(23)
cfn=(4780) png_sig_cmp
calls=1 111 
* 1149
* 2
+8 2
+1 1
+65 1
+4 1
-4 4
cfi=(25)
cfn=(4776)
calls=1 28 
* 1567
* 20
cfi=(25)
cfn=(4776)
calls=5 28 
* 7806
+1 12
cfi=(26)
cfn=(4788)
calls=6 45 
* 72
* 6
+2 12
cfi=(23)
cfn=(4790)
calls=6 188 
* 138
+1 24
cfi=(26)
cfn=(4794)
calls=6 84 
* 9954
fi=(18)
98 48
cob=(3)
cfi=(3)
cfn=(4040)
calls=6 -98 
* 10378
fe=(20)
395 12
+6 24
cob=(3)
cfi=(3)
cfn=(4600)
calls=6 0 
* 179
* 12
+1 5
cfi=(26)
cfn=(4806) png_handle_IHDR
calls=1 -73 
* 10136
* 1
+1 20
cob=(3)
cfi=(3)
cfn=(4600)
calls=5 0 
* 153
* 10
+3 15
cfi=(23)
cfn=(4834) png_handle_as_unknown
calls=5 717 
* 85
* 10
+18 20
cob=(3)
cfi=(3)
cfn=(4600)
calls=5 0 
* 151
* 10
+2 20
cob=(3)
cfi=(3)
cfn=(4600)
calls=5 0 
* 146
* 10
+2 3
+2 2
+4 1
+1 1
+1 1
+3 16
cob=(3)
cfi=(3)
cfn=(4600)
calls=4 0 
* 120
* 8
+4 16
cob=(3)
cfi=(3)
cfn=(4600)
calls=4 0 
* 120
* 8
+4 16
cob=(3)
cfi=(3)
cfn=(4600)
calls=4 0 
* 116
* 8
+1 5
cfi=(26)
cfn=(4852) png_handle_gAMA
calls=1 561 
* 7166
* 1
+3 12
cob=(3)
cfi=(3)
cfn=(4600)
calls=3 0 
* 90
* 6
+4 12
cob=(3)
cfi=(3)
cfn=(4600)
calls=3 0 
* 91
* 6
+4 12
cob=(3)
cfi=(3)
cfn=(4600)
calls=3 0 
* 93
* 6
+4 12
cob=(3)
cfi=(3)
cfn=(4600)
calls=3 0 
* 94
* 6
+4 12
cob=(3)
cfi=(3)
cfn=(4600)
calls=3 0 
* 87
* 6
+1 5
cfi=(26)
cfn=(4856) png_handle_pHYs
calls=1 1452 
* 5809
* 1
+3 8
cob=(3)
cfi=(3)
cfn=(4600)
calls=2 0 
* 63
* 4
+4 8
cob=(3)
cfi=(3)
cfn=(4600)
calls=2 0 
* 57
* 4
+1 5
cfi=(26)
cfn=(4838) png_handle_sRGB
calls=1 876 
* 12936
* 1
+3 4
cob=(3)
cfi=(3)
cfn=(4600)
calls=1 0 
* 32
* 2
+4 4
cob=(3)
cfi=(3)
cfn=(4600)
calls=1 0 
* 31
* 2
+4 4
cob=(3)
cfi=(3)
cfn=(4600)
calls=1 0 
* 31
* 2
+4 4
cob=(3)
cfi=(3)
cfn=(4600)
calls=1 0 
* 31
* 2
+4 4
cob=(3)
cfi=(3)
cfn=(4600)
calls=1 0 
* 31
* 2
+4 4
cob=(3)
cfi=(3)
cfn=(4600)
calls=1 0 
* 31
* 2
+8 5
cfi=(26)
cfn=(4860) png_handle_unknown
calls=1 2122 
* 28010
* 1
+2 6

fn=(4034)
33 2
fi=(18)
+65 6
cob=(1) /lib32/ld-2.15.so
cfi=(1) ???
cfn=(2957) 0x00014a40'2
calls=1 -98 
* 3026
fe=(20)
-50 6
cfi=(21)
cfn=(4090) png_create_struct_2
calls=1 322 
* 2535
* 1
+5 2
+5 2
cfi=(23)
cfn=(4138) png_init_mmx_flags
calls=1 753 
* 5
+8 4
cob=(1)
cfi=(1)
cfn=(2957)
calls=1 -66 
* 1166
* 2
+19 9
cfi=(21)
cfn=(4144) png_set_mem_fn
calls=1 551 
* 8
+3 9
cfi=(24) /vagrant/libpng_/libpng/pngerror.c
cfn=(4146) png_set_error_fn
calls=1 263 
* 8
+2 3
+3 18
+2 18
+2 3
+32 2
+1 3
cfi=(21)
cfn=(4148) png_malloc
calls=1 410 
* 222
* 2
+2 1
+1 1
+1 1
+2 6
cfi=(9)
cfn=(4154) inflateInit_
calls=1 0 
* 5206
* 9
+9 3
+1 2
+2 4
cfi=(25)
cfn=(4190) png_set_read_fn
calls=1 -12 
* 16
+11 3
cob=(3)
cfi=(3)
cfn=(3790) _setjmp
calls=1 0 
* 16
* 2
+5 4

fn=(5000) png_read_image
844 7
fi=(18)
98 6
cob=(3)
cfi=(3)
cfn=(4040)
calls=1 -98 
* 1058
fe=(20)
852 2
cfi=(30) /vagrant/libpng_/libpng/pngtrans.c
cfn=(5002) png_set_interlace_handling
calls=1 74 
* 1059
* 1
+9 1
+1 1
+2 3
+5 14160
cfn=(5004)
calls=2832 539 
* 3707945050
-2 8496
-3 4
+3 3
+6 6

fn=(5526) png_read_end
881 6
fi=(18)
98 6
cob=(3)
cfi=(3)
cfn=(4040)
calls=1 -98 
* 1033
fe=(20)
886 3
cfi=(26)
cfn=(4818)
calls=1 95 
* 1624
+62 1
+4 1
-4 4
cfi=(25)
cfn=(4776)
calls=1 28 
* 1561
+1 2
cfi=(26)
cfn=(4788)
calls=1 45 
* 12
* 1
+2 2
cfi=(23)
cfn=(4790)
calls=1 188 
* 23
+1 4
cfi=(26)
cfn=(4794)
calls=1 84 
* 1656
fi=(18)
98 7
cob=(3)
cfi=(3)
cfn=(4040)
calls=1 -98 
* 1274
fe=(20)
956 2
+3 4
cob=(3)
cfi=(3)
cfn=(4600)
calls=1 0 
* 33
* 2
+2 4
cob=(3)
cfi=(3)
cfn=(4600)
calls=1 0 
* 26
* 2
+1 5
cfi=(26)
cfn=(5530) png_handle_IEND
calls=1 539 
* 2704
* 1
+97 2
+1 6

fn=(4772) png_read_png
1288 8
+5 2
+7 3
cfn=(4774)
calls=1 301 
* 100344
+6 2
+8 2
+15 2
+10 2
+11 2
+9 2
+12 2
+6 2
+6 2
+10 3
cfn=(4864) png_read_update_info
calls=1 514 
* 15817
+5 5
cfi=(23)
cfn=(4878)
calls=1 322 
* 1111
+2 2
+2 5
cfi=(21)
cfn=(4148)
calls=1 410 
* 385
* 1
+3 1
+2 3
1285 1
1409 4
cfi=(29) /vagrant/libpng_/libpng/pngget.c
cfn=(4880) png_get_rowbytes
calls=1 25 
* 7
1285 2831
1409 11324
cfi=(29)
cfn=(4880)
calls=2831 25 
* 19817
* 8496
cfi=(21)
cfn=(4148)
calls=2832 410 
* 681372
* 2832
-2 8496
+7 4
cfn=(5000)
calls=1 844 
* 3707969857
+1 1
+3 3
cfn=(5526)
calls=1 881 
* 10011
+5 6

fn=(4864)
514 3
fi=(18)
98 6
cob=(3)
cfi=(3)
cfn=(4040)
calls=1 -98 
* 998
fe=(20)
516 2
+1 2
cfi=(26)
cfn=(4866) png_read_start_row
calls=1 2917 
* 13717
* 1
+4 4
cfi=(28) /vagrant/libpng_/libpng/pngrtran.c
cfn=(4876) png_read_transform_info
calls=1 1033 
* 1081
+1 3

fl=(27) /vagrant/libpng_/libpng/pngset.c
fn=(4846) png_set_gAMA_fixed
165 14
fi=(18)
-67 14
cob=(3)
cfi=(3)
cfn=(4040)
calls=2 -98 
* 2660
fe=(27)
+71 8
+10 4
+9 8
+3 2
+2 2
+1 4
+2 10

fn=(4850) png_set_cHRM
38 21
fi=(18)
+60 7
cob=(3)
cfi=(3)
cfn=(4040)
calls=1 -98 
* 1330
fe=(27)
-58 4
+3 16
+1 10
+1 10
+1 5
+6 10
+1 6
+1 6
+1 4
+7 2
+1 2
+1 2
+1 2
+1 2
+1 2
+1 2
+1 2
+2 11
* 2
+1 4
* 2
+1 4
* 2
+1 4
* 2
+1 4
* 2
+1 4
* 2
+1 4
* 3
+1 3
* 2
+2 1
+1 4

fn=(4840) png_set_sRGB_gAMA_and_cHRM
550 5
fi=(18)
98 7
cob=(3)
cfi=(3)
cfn=(4040)
calls=1 -98 
* 1414
fe=(27)
569 4
+3 5
cfn=(4842) png_set_sRGB
calls=1 -34 
* 1350
+5 5
cfn=(4844) png_set_gAMA
calls=1 139 
* 1375
+4 4
cfn=(4846)
calls=1 165 
* 1363
+15 11
cfn=(4848) png_set_cHRM_fixed
calls=1 89 
* 1476
+14 19
cfn=(4850)
calls=1 38 
* 1505
+4 4

fn=(4848)
89 9
fi=(18)
+9 7
cob=(3)
cfi=(3)
cfn=(4040)
calls=1 -98 
* 1330
fe=(27)
-7 4
+3 8
+1 8
+1 8
+1 8
+6 14
+1 1
-1 5
+1 6
+1 1
-1 5
+1 6
+1 2
-1 5
+1 7
+6 1
+1 1
+1 2
+1 2
+1 2
+1 2
+1 2
+1 2
+2 5
+1 3
+1 2
+1 2
+1 2
+1 2
+1 3
+1 2
+2 1
+1 6

fn=(4842)
538 3
fi=(18)
98 7
cob=(3)
cfi=(3)
cfn=(4040)
calls=1 -98 
* 1330
fe=(27)
540 4
+3 2
+1 1
+1 3

fn=(4858) png_set_pHYs
473 3
fi=(18)
98 7
cob=(3)
cfi=(3)
cfn=(4040)
calls=1 -98 
* 1330
fe=(27)
475 4
+3 2
+1 2
+1 2
+1 1
+1 3

fn=(4826) png_set_IHDR
245 9
fi=(18)
98 7
cob=(3)
cfi=(3)
cfn=(4040)
calls=1 -98 
* 1330
fe=(27)
248 4
+4 5
+2 8
+4 5
+1 2
+3 6
+1 4
+3 6
+2 2
+1 2
+3 2
+3 2
+13 4
+2 2
+16 2
+1 2
+1 2
+1 2
+1 2
+1 2
+1 2
+1 2
+2 1
+1 5
+3 2
+1 1
+1 4
+3 3
+1 6
+7 5
+1 6

fn=(4844)
139 14
fi=(18)
-41 14
cob=(3)
cfi=(3)
cfn=(4040)
calls=2 -98 
* 2660
fe=(27)
+44 8
+4 10
+7 4
+2 14
* 4
+2 2
+1 12
+2 8

fl=(23)
fn=(4138)
753 1
+1 1
+1 1
+34 1
+3 1

fn=(4760) png_init_io
606 1
fi=(18)
98 6
cob=(3)
cfi=(3)
cfn=(4040)
calls=1 -98 
* 1033
fe=(23)
608 3
+1 2

fn=(4766) png_set_sig_bytes
93 5
fi=(18)
+5 6
cob=(3)
cfi=(3)
cfn=(4040)
calls=1 -98 
* 992
fe=(23)
-3 2
+3 4
+1 4

fn=(4780)
111 3
+1 8
+1 2
+3 1
-1 2
+4 1
-1 2
+3 3
+3 6
cob=(1)
cfi=(1)
cfn=(2957)
calls=1 0 
* 1119
+1 2

fn=(4796) png_calculate_crc
199 13599
+3 9066
+2 16
+2 13607
+8 9066
+1 31731
cfi=(9)
cfn=(4792) crc32
calls=4533 0 
* 214061396
* 4533
+1 13599

fn=(5080) png_zfree
179 2480
+1 12400
cfi=(21)
cfn=(5082)
calls=2480 464 
* 382350
+1 4960

fn=(4200) png_info_init_3
285 8
+1 2
fi=(18)
98 12
cob=(3)
cfi=(3)
cfn=(4040)
calls=2 -98 
* 2125
fe=(23)
290 4
fi=(22)
85 172
fe=(23)
299 8

fn=(4196) png_create_info_struct
226 3
fi=(18)
98 6
cob=(3)
cfi=(3)
cfn=(4040)
calls=1 -98 
* 1012
fe=(23)
230 3
+2 6
cfi=(21)
cfn=(4090)
calls=1 +90 
* 275
* 1
+5 2
+1 4
cfn=(4200)
calls=1 +47 
* 1165
+2 1
+1 3

fn=(4790)
188 509
+1 2036
cfi=(9)
cfn=(4792)
calls=509 0 
* 7126
* 1018
+1 1018

fn=(4878)
322 24
fi=(18)
98 18
cob=(3)
cfi=(3)
cfn=(4040)
calls=3 -98 
* 3132
fe=(23)
324 12
+6 12
+28 12
+17 12
+18 6
+27 12
+16 12
+34 12
+33 12
+16 12
+17 12
+5 2
+3 3
+2 5
cfi=(21)
cfn=(5082)
calls=1 -82 
* 155
* 14155
cfi=(21)
cfn=(5082)
calls=2831 -82 
* 731066
+1 5664
-3 8496
+5 4
cfi=(21)
cfn=(5082)
calls=1 -85 
* 261
+1 1
+2 1
+5 6
+1 6
+2 3
+2 18

fn=(5540)
570 3
fi=(18)
98 6
cob=(3)
cfi=(3)
cfn=(4040)
calls=1 -98 
* 1072
fe=(23)
573 6
cfn=(4878)
calls=1 322 
* 760924
+3 2
+8 4
cfn=(4200)
calls=1 285 
* 1166
+1 3

fn=(4156) png_zalloc
144 14880
+1 4960
+3 2480
+2 7440
+1 7440
cfi=(21)
cfn=(4148)
calls=2480 410 
* 1184180
* 2480
+1 2480
+3 4960
+3 4960
fi=(22)
-73 9920
cob=(3)
cfi=(3)
cfn=(4112) 0x00135bd0
calls=2480 -85 
* 221459
fe=(23)
+85 17360

fn=(4834)
717 30
+4 15
+1 5
-1 10
+7 25

fl=(24)
fn=(4146)
263 1
+1 2
+1 2
+1 2
+1 1

fl=(16) /vagrant/langsec+expliot/working_prototype/readpng.c
fn=(3792) main
104 6
cob=(1)
cfi=(1)
cfn=(2957)
calls=1 0 
* 1134
* 1
fi=(18)
+1 2
cob=(1)
cfi=(1)
cfn=(2957)
calls=1 0 
* 2414
fe=(16)
+1 2
+5 3
cfn=(3888) read_png
calls=1 -86 
* 3713151228
+5 1
-5 2
+6 4

fn=(3888)
25 4
cob=(3)
cfi=(3)
cfn=(3798) mcount
calls=1 -25 
* 59
+8 4
cob=(1)
cfi=(1)
cfn=(2957)
calls=1 -33 
* 2801
* 1
+1 1
-1 2
fi=(18)
+72 2
cob=(3)
cfi=(3)
cfn=(3814) puts
calls=1 0 
* 670
fe=(16)
-62 5
cfi=(19) /vagrant/langsec+expliot/working_prototype/langsec_readpng.c
cfn=(4028) wpng_create_read_struct
calls=1 -26 
* 13157
* 1
+3 2
fi=(18)
+59 2
cob=(3)
cfi=(3)
cfn=(3814)
calls=1 0 
* 700
fe=(16)
-51 3
cfi=(19)
cfn=(4192) wpng_create_info_struct
calls=1 -27 
* 3281
* 1
+1 2
+11 3
cob=(3)
cfi=(3)
cfn=(3790)
calls=1 -66 
* 16
* 2
fi=(18)
+39 2
cob=(3)
cfi=(3)
cfn=(3814)
calls=1 0 
* 619
fe=(16)
-28 5
cfi=(19)
cfn=(4206) wpng_init_io
calls=1 +24 
* 3522987
+3 4
cfi=(19)
cfn=(4762) wpng_set_sig_bytes
calls=1 +54 
* 1750
fi=(18)
+25 2
cob=(3)
cfi=(3)
cfn=(3814)
calls=1 0 
* 628
fe=(16)
-14 7
cfi=(19)
cfn=(4768) wpng_read_png
calls=1 +53 
* 3708833477
+3 6
cfi=(19)
cfn=(5532) wpng_destroy_read_struct
calls=1 -57 
* 769346
+3 3
cob=(1)
cfi=(1)
cfn=(2957)
calls=1 -97 
* 1670
+3 1
+1 2

fl=(19)
fn=(4192)
27 4
cob=(3)
cfi=(3)
cfn=(3798)
calls=1 -27 
* 59
fi=(18)
+78 2
cob=(3)
cfi=(3)
cfn=(3814)
calls=1 0 
* 730
fe=(19)
-76 3
cfi=(23)
cfn=(4196)
calls=1 226 
* 2481
+1 2

fn=(4762)
134 4
cob=(3)
cfi=(3)
cfn=(3798)
calls=1 0 
* 59
fi=(18)
-29 2
cob=(3)
cfi=(3)
cfn=(3814)
calls=1 0 
* 665
fe=(19)
+31 5
cfi=(23)
cfn=(4766)
calls=1 -43 
* 1013
+1 2

fn=(4206)
101 7
cob=(3)
cfi=(3)
cfn=(3798)
calls=1 0 
* 59
* 1
fi=(18)
+4 2
cob=(3)
cfi=(3)
cfn=(3814)
calls=1 0 
* 619
fe=(19)
+2 1
cfn=(4208) get_PNG_parser
calls=1 -41 
* 28436
* 1
fi=(18)
-2 4
cob=(1)
cfi=(1)
cfn=(2957)
calls=1 0 
* 2407
287 6
cob=(1)
cfi=(1)
cfn=(2957)
calls=1 0 
* 2416
* 1
105 2
cob=(3)
cfi=(3)
cfn=(3814)
calls=1 0 
* 481
fe=(19)
+9 5
cob=(1)
cfi=(1)
cfn=(2957)
calls=1 0 
* 3450847
+2 2
+1 7
cob=(1)
cfi=(1)
cfn=(2957)
calls=1 0 
* 34781
fi=(18)
-12 2
cob=(3)
cfi=(3)
cfn=(3814)
calls=1 0 
* 504
fe=(19)
+20 4
cob=(1)
cfi=(1)
cfn=(2957)
calls=1 0 
* 1337
+1 4
cfi=(23)
cfn=(4760)
calls=1 606 
* 1045
+1 6

fn=(5532)
37 4
cob=(3)
cfi=(3)
cfn=(3798)
calls=1 -37 
* 59
fi=(18)
+68 2
cob=(3)
cfi=(3)
cfn=(3814)
calls=1 0 
* 709
fe=(19)
-66 7
cfi=(20)
cfn=(5536)
calls=1 1066 
* 768563
+1 2

fn=(4768)
144 4
cob=(3)
cfi=(3)
cfn=(3798)
calls=1 0 
* 59
fi=(18)
-39 2
cob=(3)
cfi=(3)
cfn=(3814)
calls=1 0 
* 631
fe=(19)
+41 9
cfi=(20)
cfn=(4772)
calls=1 1288 
* 3708832770
+1 2

fn=(4028)
17 4
cob=(3)
cfi=(3)
cfn=(3798)
calls=1 -17 
* 59
fi=(18)
+88 2
cob=(3)
cfi=(3)
cfn=(3814)
calls=1 0 
* 730
fe=(19)
-86 9
cfi=(20)
cfn=(4032)
calls=1 +2 
* 12351
+1 2

fn=(4208)
66 7
cob=(3)
cfi=(3)
cfn=(3798)
calls=1 -66 
* 59
+1 3
cob=(1)
cfi=(1)
cfn=(2957)
calls=1 -67 
* 4880
* 1
+1 1
cob=(1)
cfi=(1)
cfn=(2957)
calls=1 -68 
* 1792
* 1
+1 1
cob=(7) /usr/local/lib/libhammer.so
cfi=(13) ???
cfn=(4254) h_uint32
calls=1 -69 
* 508
* 1
+1 1
cob=(1)
cfi=(1)
cfn=(2957)
calls=1 -70 
* 1159
* 3
cob=(1)
cfi=(1)
cfn=(2957)
calls=1 -70 
* 1885
* 2
cob=(7)
cfi=(13)
cfn=(4254)
calls=1 -70 
* 508
* 2
cob=(7)
cfi=(13)
cfn=(4254)
calls=1 -70 
* 508
* 5
cob=(1)
cfi=(1)
cfn=(2957)
calls=1 -70 
* 2164
* 1
+1 1
cob=(7)
cfi=(13)
cfn=(4254)
calls=1 -71 
* 508
* 1
+7 1
cob=(1)
cfi=(1)
cfn=(2957)
calls=1 -78 
* 1175
* 1
+3 3
cob=(7)
cfi=(13)
cfn=(4214) h_token
calls=1 -81 
* 769
* 1
+1 1
cob=(7)
cfi=(13)
cfn=(4254)
calls=1 -82 
* 508
* 6
cob=(1)
cfi=(1)
cfn=(2957)
calls=1 -82 
* 1904
* 3
cob=(1)
cfi=(1)
cfn=(2957)
calls=1 -82 
* 1370
+1 3
cob=(1)
cfi=(1)
cfn=(2957)
calls=1 -83 
* 1975
+3 3
cob=(7)
cfi=(13)
cfn=(4214)
calls=1 -86 
* 769
* 2
cob=(1)
cfi=(1)
cfn=(2957)
calls=1 -86 
* 1515
* 1
+1 1
cob=(7)
cfi=(13)
cfn=(4254)
calls=1 -87 
* 508
* 3
cob=(7)
cfi=(13)
cfn=(4316) h_left
calls=1 -87 
* 727
+1 3
cob=(7)
cfi=(13)
cfn=(4322) h_length_value
calls=1 -88 
* 507
+2 2
cob=(1)
cfi=(1)
cfn=(2957)
calls=1 -90 
* 1829
+2 12
cob=(7)
cfi=(13)
cfn=(4284) h_sequence
calls=1 -92 
* 826
+2 6

fl=(28)
fn=(4876)
1033 5
fi=(18)
98 6
cob=(3)
cfi=(3)
cfn=(4040)
calls=1 -98 
* 1023
fe=(28)
1036 2
+23 2
+9 2
+12 2
+5 2
+12 2
+5 2
+5 2
+4 3
+2 1
+1 5
+5 2
+4 3
+1 1
+4 2
+13 2
+9 3
+2 5
+6 4

fn=(4868) png_init_read_transformations
686 6
fi=(18)
98 6
cob=(3)
cfi=(3)
cfn=(4040)
calls=1 -98 
* 1059
fe=(28)
694 2
+4 4
+61 6
+4 2
+15 3
963 2
+33 2
+29 6

fl=(30)
fn=(5002)
74 3
fi=(18)
+24 6
cob=(3)
cfi=(3)
cfn=(4040)
calls=1 -98 
* 1044
fe=(30)
-16 1
-6 2
+7 3

fl=(9)
fn=(3594) atexit
0 2
cfn=(3596) 0x0806a2d2
calls=1 0 
0 2
0 11
cob=(1)
cfi=(1)
cfn=(2957)
calls=1 0 
0 1286
0 3

fn=(5246) inflate_codes_free
0 4333
cfi=(23)
cfn=(5080)
calls=619 179 
0 79232

fn=(3596)
0 4

fn=(3770) __libc_csu_init
0 5
cfn=(3596)
calls=1 0 
0 2
0 5
cob=(2) ???
cfi=(2) ???
cfn=(3772) 0x080489f0
calls=1 0 
0 38
0 11

fn=(4188) inflate_blocks_reset
0 83
cfn=(4186) adler32
calls=3 0 
0 48
0 18

fn=(3784) 0x0806a320
0 11

fn=(5022)
0 144923
cfn=(5024) inflate_blocks
calls=4024 0 
0 2795997247
0 16106
cfn=(4188)
calls=1 0 
0 51
0 8104

fn=(5116) inflate_trees_dynamic
0 8047
cfi=(23)
cfn=(4156)
calls=619 144 
0 368091
0 10523
cfn=(5078) huft_build
calls=619 0 
0 11555818
0 4333
cfi=(23)
cfn=(5080)
calls=619 179 
0 110182
0 16094
cfn=(5078)
calls=619 0 
0 2424986
0 3714

fn=(5126) inflate_flush
0 331460
cfn=(4186)
calls=10304 0 
0 162664123
0 72128
cob=(3)
cfi=(3)
cfn=(4240) 0x00136ce0
calls=10303 0 
0 15720144
cob=(1)
cfi=(1)
cfn=(2957)
calls=1 0 
0 7861
0 215496
cfn=(4186)
calls=2539 0 
0 103737096
0 20312
cob=(3)
cfi=(3)
cfn=(4240)
calls=2539 0 
0 9971017
0 10156

fn=(5524) inflateReset
0 20
cfn=(4188)
calls=1 0 
0 49
0 3

fn=(4184) inflate_blocks_reset.constprop.0
0 48
cfn=(4186)
calls=2 0 
0 32
0 12

fn=(4186)
0 266401299

fn=(5590)
0 17
cfn=(5592) inflate_blocks_free
calls=1 0 
0 592
0 6
cfi=(23)
cfn=(5080)
calls=1 179 
0 128
0 5

fn=(3778) 0x080490d0
0 8

fn=(5732) 0x08049070
0 18

fn=(4792)
0 214068522

fn=(5024)
0 122243
cfn=(5116)
calls=619 0 
0 14501788
0 8047
cfn=(5118) inflate_codes_new
calls=619 0 
0 319404
0 5571
cfi=(23)
cfn=(5080)
calls=619 179 
0 100897
0 11142
cfn=(5122) inflate_codes
calls=619 0 
0 202226082
0 68323
cfn=(5122)
calls=4019 0 
0 2570650944
0 12371
cfn=(5246)
calls=619 0 
0 83565
0 32012
cfn=(5126)
calls=1 0 
0 95
0 17
cfn=(5126)
calls=1 0 
0 95
0 27098
cfi=(23)
cfn=(4156)
calls=619 144 
0 496694
0 3596925
cfn=(5068) inflate_trees_bits
calls=619 0 
0 2092091
0 5016
cfn=(5126)
calls=4 0 
0 377
0 1252398
cfn=(5126)
calls=4019 0 
0 380033
0 4019

fn=(5118)
0 4333
cfi=(23)
cfn=(4156)
calls=619 144 
0 307024
0 8047

fn=(4168) inflate_blocks_new
0 11
cfi=(23)
cfn=(4156)
calls=1 144 
0 300
0 8
cfi=(23)
cfn=(4156)
calls=1 144 
0 1290
0 8
cfi=(23)
cfn=(4156)
calls=1 144 
0 3122
0 11
cfn=(4184)
calls=1 0 
0 46
0 6

fn=(5122)
0 182302
cfn=(5126)
calls=3175 0 
0 109584023
0 1463
cfn=(5126)
calls=209 0 
0 19795
0 5883416
cfn=(5126)
calls=1 0 
0 103200
0 4984
cfn=(5126)
calls=623 0 
0 29443776
0 20200587
cfn=(5126)
calls=1011 0 
0 104218699
0 21048568
cfn=(5126)
calls=6 0 
0 619771
0 32747
cfn=(5126)
calls=74 0 
0 3439608
0 24780
cfn=(5126)
calls=1180 0 
0 44940321
0 3297222
cfn=(5124) inflate_fast
calls=8197 0 
0 2429670878
0 160886

fn=(5592)
0 8
cfn=(4184)
calls=1 0 
0 46
0 5
cfi=(23)
cfn=(5080)
calls=1 179 
0 163
0 5
cfi=(23)
cfn=(5080)
calls=1 179 
0 178
0 4
cfi=(23)
cfn=(5080)
calls=1 179 
0 178
0 5

fn=(3392) __gmon_start__
0 24
cob=(1)
cfi=(1)
cfn=(2957)
calls=1 0 
0 117894
0 2
cfn=(3594)
calls=1 0 
0 1304
0 10

fn=(3756) 0x08049000
0 13
cob=(1)
cfi=(1)
cfn=(2956) 0x00014a40
calls=1 0 
0 3713320563

fn=(4154)
0 25
cfi=(23)
cfn=(4156)
calls=1 144 
0 295
0 11
cfn=(4168)
calls=1 0 
0 4802
0 19
cfn=(4188)
calls=1 0 
0 49
0 5

fn=(5068)
0 8047
cfi=(23)
cfn=(4156)
calls=619 144 
0 308183
0 10523
cfn=(5078)
calls=619 0 
0 1642345
0 7428
cfi=(23)
cfn=(5080)
calls=619 179 
0 111232
0 4333

fn=(5078)
0 15623149

fn=(5124)
0 2429670878

fl=(29)
fn=(4880)
25 2832
+1 11328
+1 5664

fl=(26)
fn=(4788)
45 1023
+1 2046
+1 2046
-1 1023
+3 1023
-2 1023
+1 2046
-2 1023
+6 1023

fn=(5184)
2232 19824
fi=(18)
98 16992
cob=(3)
cfi=(3)
cfn=(4040)
calls=2832 -98 
* 3024790
fe=(26)
2234 5664
+3 5664
+1 5664
-2 5664
fi=(22)
52 11328
cob=(3)
cfi=(3)
cfn=(4240)
calls=2832 -52 
* 26125274
* 2832
fe=(26)
2430 16992

fn=(4794)
84 31731
+1 18132
cfi=(25)
cfn=(4776)
calls=4533 -57 
* 12439579
+1 18132
cfi=(23)
cfn=(4796)
calls=4533 199 
* 214156613
+1 22665

fn=(4852)
561 7
fi=(18)
98 6
cob=(3)
cfi=(3)
cfn=(4040)
calls=1 -98 
* 1064
fe=(26)
570 3
+2 2
+6 2
+4 2
+2 4
+9 2
+7 5
cfn=(4794)
calls=1 84 
* 1659
+1 3
cfn=(4818)
calls=1 95 
* 1627
* 2
+3 3
cfn=(4788)
calls=1 45 
* 12
* 1
+2 2
+8 2
+1 3
+12 3
+2 1
+2 4
cfi=(27)
cfn=(4844)
calls=1 139 
* 1375
+3 4
cfi=(27)
cfn=(4846)
calls=1 165 
* 1363
+2 5

fn=(5158)
2667 25488
fi=(18)
98 16992
cob=(3)
cfi=(3)
cfn=(4040)
calls=2832 -98 
* 2823813
* 25488
cob=(3)
cfi=(3)
cfn=(4040)
calls=2832 -98 
* 5112718
fe=(26)
2670 8496
+7 668
+1 1002
+4 1002
-17 668
+19 668
-2 1002
+2 19622500
-2 29434084
+10 310
+4 465
+2 310
-2 465
+2 9107490
-2 13661390
+13 9372
+1 4686
-3 2343
-1 2343
+6 7029
+2 7029
-2 7029
+2 21087
-2 25773
+7 7029
+3 9372
-1 2343
-2 7029
+3 275302500
-1 68825625
-2 206479218
+66 16992

fn=(4818)
95 3054
+2 509
+2 1527
+4 1018
+2 5
cfn=(4794)
calls=1 -21 
* 24289
+3 1018
cfn=(4820) png_crc_error
calls=509 +23 
* 906307
+16 509
-16 1018
+17 3054

fn=(4860)
2122 8
fi=(18)
98 6
cob=(3)
cfi=(3)
cfn=(4040)
calls=1 -98 
* 1010
fe=(26)
2127 3
+9 4
cfn=(4862) png_check_chunk_name
calls=1 +74 
* 1044
+2 2
+53 1
-39 2
+41 3
cfn=(4818)
calls=1 95 
* 25921
+5 6

fn=(5530)
539 5
fi=(18)
98 6
cob=(3)
cfi=(3)
cfn=(4040)
calls=1 -98 
* 1055
fe=(26)
542 4
+7 1
+2 2
+4 3
cfn=(4818)
calls=1 95 
* 1624
+1 4

fn=(4856)
1452 7
fi=(18)
98 6
cob=(3)
cfi=(3)
cfn=(4040)
calls=1 -98 
* 1055
fe=(26)
1459 3
+2 2
+6 4
+7 2
+7 5
cfn=(4794)
calls=1 84 
* 1696
+1 3
cfn=(4818)
calls=1 95 
* 1627
* 2
+3 3
cfn=(4788)
calls=1 45 
* 12
* 1
+1 3
cfn=(4788)
calls=1 45 
* 12
+1 2
+1 5
cfi=(27)
cfn=(4858)
calls=1 473 
* 1354
+1 5

fn=(4806)
329 6
fi=(18)
98 6
cob=(3)
cfi=(3)
cfn=(4040)
calls=1 -98 
* 1074
fe=(26)
337 2
+4 2
+3 1
+2 5
cfn=(4794)
calls=1 84 
* 1743
+1 3
cfn=(4818)
calls=1 95 
* 1624
+2 2
cfn=(4788)
calls=1 45 
* 12
* 1
+1 3
cfn=(4788)
calls=1 45 
* 12
* 1
+1 4
+1 3
+1 2
+1 2
+1 3
+4 1
+1 1
+1 2
+1 1
+1 1
+2 2
+4 4
+13 1
+5 4
+3 1
-1 1
+1 3
+1 2
fi=(18)
98 6
cob=(3)
cfi=(3)
cfn=(4040)
calls=1 -98 
* 1358
fe=(26)
392 2
fi=(18)
98 6
cob=(3)
cfi=(3)
cfn=(4040)
calls=1 -98 
* 1341
* 8
cob=(3)
cfi=(3)
cfn=(4040)
calls=1 -98 
* 1409
fe=(26)
394 16
cfi=(27)
cfn=(4826)
calls=1 245 
* 1449
+2 6

fn=(4820)
131 2036
+5 1018
+2 8
+2 2040
+8 2525
cfi=(25)
cfn=(4776)
calls=505 28 
* 879691
* 20
cfi=(25)
cfn=(4776)
calls=4 28 
* 6244
+8 509
-6 1018
+2 1527
cfn=(4788)
calls=509 45 
* 6108
+1 1527
+4 2036

fn=(4862)
2210 3
fi=(18)
98 6
cob=(3)
cfi=(3)
cfn=(4040)
calls=1 -98 
* 1004
fe=(26)
2212 14
+1 2
-1 2
+1 1
-1 2
+1 7
+4 3

fn=(4866)
2917 6
fi=(18)
98 6
cob=(3)
cfi=(3)
cfn=(4040)
calls=1 -98 
* 987
fe=(26)
2938 1
+1 2
cfi=(28)
cfn=(4868)
calls=1 686 
* 1098
+1 2
+21 2
+1 2
+1 3
+2 1
+3 3
+5 3
+28 3
+22 2
+35 2
+15 2
-4 3
+3 2
+6 4
cfi=(21)
cfn=(4148)
calls=1 410 
* 227
* 1
+1 2
+9 5
cfi=(21)
cfn=(4148)
calls=1 410 
* 227
* 1
+3 7
cfi=(21)
cfn=(4870) png_memset_check
calls=1 533 
* 2576
fi=(18)
98 8
cob=(3)
cfi=(3)
cfn=(4040)
calls=1 -98 
* 1389
* 8
cob=(3)
cfi=(3)
cfn=(4040)
calls=1 -98 
* 1401
* 8
cob=(3)
cfi=(3)
cfn=(4040)
calls=1 -98 
* 1409
* 8
cob=(3)
cfi=(3)
cfn=(4040)
calls=1 -98 
* 1401
* 8
cob=(3)
cfi=(3)
cfn=(4040)
calls=1 -98 
* 1440
* 8
cob=(3)
cfi=(3)
cfn=(4040)
calls=1 -98 
* 1442
fe=(26)
3100 1
+1 6

fn=(5198)
2790 16992
fi=(18)
98 16992
cob=(3)
cfi=(3)
cfn=(4040)
calls=2832 -98 
* 2823515
fe=(26)
2808 8496
+1 5664
+3 2
+33 2
+62 4
+3 3
cfi=(9)
cfn=(5524)
calls=1 0 
* 72
+2 1
+1 16992

fn=(4838)
876 7
fi=(18)
98 6
cob=(3)
cfi=(3)
cfn=(4040)
calls=1 -98 
* 1074
fe=(26)
882 3
+2 2
+6 2
+4 5
+7 2
+7 5
cfn=(4794)
calls=1 84 
* 1635
+1 3
cfn=(4818)
calls=1 95 
* 1627
* 2
+3 1
+2 2
+7 2
+29 2
+16 4
cfi=(27)
cfn=(4840)
calls=1 550 
* 8547
+1 5

fl=(25)
fn=(4776)
28 27760
fi=(18)
+70 38864
cob=(3)
cfi=(3)
cfn=(4040)
calls=5552 -98 
* 7894713
fe=(25)
-68 16656
+1 27760
cfn=(4778) png_default_read_data
calls=5552 +13 
* 6091314
* 5552
+3 22208

fn=(4190)
136 4
+1 2
+3 1
+1 3
+8 2
+10 1
+2 3

fn=(4778)
44 27760
fi=(18)
287 38864
cob=(3)
cfi=(3)
cfn=(4384) fread
calls=5552 0 
* 5991378
fe=(25)
58 11104
+2 22208

fl=(21)
fn=(5162)
520 2832
fi=(22)
52 19824
cob=(3)
cfi=(3)
cfn=(4240)
calls=2832 -52 
* 15120048
fe=(21)
528 5664

fn=(5596)
376 6
+2 4
+3 4
+15 4
cob=(3)
cfi=(3)
cfn=(4064) free
calls=2 0 
* 292
+4 4

fn=(4870)
533 1
fi=(22)
85 7
cob=(3)
cfi=(3)
cfn=(4112)
calls=1 -85 
* 2566
fe=(21)
542 2

fn=(4148)
410 26580
+3 21264
+4 15948
+8 15948
cfn=(4150) png_malloc_default
calls=5316 +5 
* 1749661
* 10632
+1 26580

fn=(4090)
322 10
+5 4
+5 1
-2 1
-1 2
-1 1
+7 4
+18 4
cob=(3)
cfi=(3)
cfn=(3466) malloc
calls=1 0 
* 186
cob=(1)
cfi=(1)
cfn=(2957)
calls=1 0 
* 1316
* 6

ob=(8) /lib32/libm-2.15.so
fl=(14) ???
fn=(3698) 0x000046f0
0 4
cfn=(3700) 0x00004727
calls=1 0 
0 2
0 9

fn=(5786) 0x00004670
0 5
cfn=(3700)
calls=1 0 
0 2
0 10
cob=(1)
cfi=(1)
cfn=(2957)
calls=1 0 
0 1314
0 14

fn=(3708) 0x0001ec00
0 5
cfn=(3700)
calls=1 0 
0 2
0 8

fn=(3700)
0 6

ob=(9) /usr/lib/valgrind/vgpreload_core-x86-linux.so
fl=(15) ???
fn=(3732) 0x00000427
0 6

fn=(5750) 0x00000370
0 5
cfn=(3732)
calls=1 0 
0 2
0 10
cob=(1)
cfi=(1)
cfn=(2957)
calls=1 0 
0 942
0 14

fn=(3730) 0x000003f0
0 4
cfn=(3732)
calls=1 0 
0 2
0 9

ob=(5)
fl=(21)
fn=(4090)
fi=(22)
85 8
cob=(3)
cfi=(3)
cfn=(4112)
calls=1 -85 
* 65
cob=(1)
cfi=(1)
cfn=(2957)
calls=1 -85 
* 1192
fe=(21)
361 10

fn=(4144)
551 1
+1 2
+1 2
+1 2
+1 1

fn=(4150)
430 21264
+20 15948
cob=(3)
cfi=(3)
cfn=(3466)
calls=5316 0 
* 1669921
* 5316
+4 10632
+4 26580

fn=(5084) png_free_default
478 10632
+1 21264
+11 10632
cob=(3)
cfi=(3)
cfn=(4064)
calls=5315 0 
* 980325
cob=(1)
cfi=(1)
cfn=(2957)
calls=1 0 
* 1195
+3 10632

fn=(5082)
464 15972
+1 21296

ob=(9)
fl=(15)
fn=(3740) 0x00000520
0 5
cfn=(3732)
calls=1 0 
0 2
0 8

ob=(5)
fl=(21)
fn=(5082)
469 15948
+5 15948
cfn=(5084)
calls=5316 +4 
* 1034680
+1 10648

ob=(7)
fl=(13)
fn=(4266) h_int8
0 2
cfn=(3670) 0x00005587
calls=1 0 
0 2
0 7
cfn=(4260) h_bits__m
calls=1 0 
0 494
0 3

fn=(4284)
0 6
cfn=(3670)
calls=2 0 
0 4
0 16
cfn=(4290) h_sequence__mv
calls=1 0 
0 810
cob=(1)
cfi=(1)
cfn=(2957)
calls=1 0 
0 1441
0 6

fn=(4584) h_slist_pop
0 48
cfn=(3670)
calls=8 0 
0 16
0 88
cfn=(4590) h_arena_free
calls=7 0 
0 7
cob=(1)
cfi=(1)
cfn=(2957)
calls=1 0 
0 637
0 40

fn=(4678) h_slist_free
0 5
cfn=(3670)
calls=1 0 
0 2
0 8
cfn=(4590)
calls=1 0 
0 1
0 4

fn=(4690) h_pprint
0 6
cfn=(3670)
calls=1 0 
0 2
0 25
cob=(1)
cfi=(1)
cfn=(2957)
calls=1 0 
0 1965
0 19
cob=(1)
cfi=(1)
cfn=(2957)
calls=1 0 
0 9373
0 45
cfn=(4691) h_pprint'2
calls=5 0 
0 21863
0 33
cob=(3)
cfi=(3)
cfn=(4040)
calls=1 0 
0 774
0 1

fn=(4691)
0 96
cfn=(3670)
calls=16 0 
0 32
0 269
cob=(3)
cfi=(3)
cfn=(4040)
calls=1 0 
0 514
0 20
cob=(3)
cfi=(3)
cfn=(4040)
calls=1 0 
0 904
0 98
cob=(3)
cfi=(3)
cfn=(4040)
calls=7 0 
0 6634
0 21
cob=(3)
cfi=(3)
cfn=(4040)
calls=1 0 
0 544
0 41
cob=(3)
cfi=(3)
cfn=(4040)
calls=4 0 
0 3060
0 76
cfn=(4691)
calls=4 0 
0 7326
0 54
cfn=(4691)
calls=6 0 
0 14799
0 76
cob=(3)
cfi=(3)
cfn=(4040)
calls=4 0 
0 3096
0 82
cob=(3)
cfi=(3)
cfn=(4040)
calls=6 0 
0 8563
0 81
cob=(3)
cfi=(3)
cfn=(4040)
calls=5 0 
0 6370
0 5

fn=(4346) h_many1
0 2
cfn=(3670)
calls=1 0 
0 2
0 7
cob=(1)
cfi=(1)
cfn=(2957)
calls=1 0 
0 1148
0 3

fn=(4518) h_hashtable_get
0 192
cfn=(4528) pos_hash
calls=8 0 
0 1712
cfn=(4520) cache_key_hash
calls=16 0 
0 4545
0 370
cfn=(4592) cache_key_equal
calls=8 0 
0 1707
0 160

fn=(4546) h_hashtable_ensure_capacity
0 31437
cfn=(3670)
calls=3493 0 
0 6986
0 56014
cfn=(4488) h_arena_malloc
calls=7 0 
0 30154
0 56
cob=(3)
cfi=(3)
cfn=(4112)
calls=7 0 
0 27283
0 74567
cfn=(4552) h_hashtable_put_raw
calls=6248 0 
0 242396
0 91853

fn=(4562) parse_token
0 21
cfn=(3670)
calls=3 0 
0 6
0 93
cfn=(4568) h_read_bits
calls=9 0 
0 801
cob=(1)
cfi=(1)
cfn=(2957)
calls=1 0 
0 716
0 49
cfn=(4488)
calls=1 0 
0 30
0 11
cfn=(4488)
calls=1 0 
0 30
0 10

fn=(4590)
0 55

fn=(3678) 0x000210c0
0 5
cfn=(3670)
calls=1 0 
0 2
0 8

fn=(4260)
0 27
cfn=(3670)
calls=9 0 
0 18
0 81
cfn=(4226) h_alloc
calls=9 0 
0 2070
0 72
cfn=(4226)
calls=9 0 
0 2070
0 108

fn=(4328) h_length_value__m
0 6
cfn=(3670)
calls=2 0 
0 4
0 14
cfn=(4226)
calls=2 0 
0 460
0 16
cfn=(4226)
calls=2 0 
0 460
0 22

fn=(4352) h_many1__m
0 3
cfn=(3670)
calls=1 0 
0 2
0 7
cfn=(4226)
calls=1 0 
0 230
0 9
cfn=(4226)
calls=1 0 
0 230
0 11

fn=(4540) h_hashtable_put
0 17465
cfn=(3670)
calls=3493 0 
0 6986
0 27944
cfn=(4546)
calls=3492 0 
0 560711
cob=(1)
cfi=(1)
cfn=(2957)
calls=1 0 
0 890
0 6986
cfn=(4520)
calls=3493 0 
0 859278
0 31437
cfn=(4552)
calls=3492 0 
0 203921
cob=(1)
cfi=(1)
cfn=(2957)
calls=1 0 
0 734
0 17465

fn=(4592)
0 64
cfn=(3670)
calls=16 0 
0 32
0 96
cob=(3)
cfi=(3)
cfn=(4600)
calls=15 0 
0 900
cob=(1)
cfi=(1)
cfn=(2957)
calls=1 0 
0 1151
0 80

fn=(5806) 0x000054d0
0 5
cfn=(3670)
calls=1 0 
0 2
0 10
cob=(1)
cfi=(1)
cfn=(2957)
calls=1 0 
0 1314
0 14

fn=(3670)
0 94758

fn=(4272) h_repeat_n
0 4
cfn=(3670)
calls=1 0 
0 2
0 7
cob=(1)
cfi=(1)
cfn=(2957)
calls=1 0 
0 1146
0 3

fn=(4290)
0 10
cfn=(3670)
calls=2 0 
0 4
0 14
cfn=(4226)
calls=2 0 
0 460
0 69
cfn=(4226)
calls=2 0 
0 460
0 80
cfn=(4226)
calls=2 0 
0 460
0 24

fn=(4500) h_slist_new
0 3
cfn=(3670)
calls=1 0 
0 2
0 6
cfn=(4488)
calls=1 0 
0 30
0 6

fn=(4528)
0 16
cfn=(3670)
calls=8 0 
0 16
0 48
cfn=(4526) h_djbhash
calls=8 0 
0 1608
0 24

fn=(4560) h_carray_new_sized
0 18
cfn=(3670)
calls=6 0 
0 12
0 54
cfn=(4488)
calls=6 0 
0 180
0 54
cfn=(4488)
calls=6 0 
0 794
0 60

fn=(4642) parse_ignoreseq
0 14
cfn=(3670)
calls=2 0 
0 4
0 42
cfn=(4507) h_do_parse'2
calls=4 0 
0 7786
0 42

fn=(4316)
0 6
cfn=(3670)
calls=2 0 
0 4
0 14
cfn=(4226)
calls=2 0 
0 460
0 8
cfn=(4226)
calls=2 0 
0 460
0 20
cfn=(4226)
calls=2 0 
0 460
0 22

fn=(4460) h_packrat_parse
0 4
cfn=(3670)
calls=1 0 
0 2
0 7
cob=(1)
cfi=(1)
cfn=(2957)
calls=1 0 
0 2611
0 4
cob=(1)
cfi=(1)
cfn=(2957)
calls=1 0 
0 694
0 2
cob=(1)
cfi=(1)
cfn=(2957)
calls=1 0 
0 1166
0 6
cob=(1)
cfi=(1)
cfn=(2957)
calls=1 0 
0 700
0 8
cob=(1)
cfi=(1)
cfn=(2957)
calls=1 0 
0 1278
0 17
cob=(1)
cfi=(1)
cfn=(2957)
calls=1 0 
0 674
0 8
cfn=(4494) h_hashtable_new
calls=1 0 
0 607
0 7
cob=(1)
cfi=(1)
cfn=(2957)
calls=1 0 
0 3365610
0 4
cob=(1)
cfi=(1)
cfn=(2957)
calls=1 0 
0 664
0 3
cob=(1)
cfi=(1)
cfn=(2957)
calls=1 0 
0 1275
0 3
cfn=(4684) h_hashtable_free
calls=1 0 
0 74133
0 8

fn=(4512) recall
0 56
cfn=(3670)
calls=8 0 
0 16
0 48
cfn=(4518)
calls=7 0 
0 1920
cob=(1)
cfi=(1)
cfn=(2957)
calls=1 0 
0 1562
0 40
cfn=(4518)
calls=8 0 
0 1936
0 80

fn=(4574) h_carray_append
0 20844
cfn=(3670)
calls=3474 0 
0 6948
0 52122
cfn=(4488)
calls=2 0 
0 2697
0 30750
cfn=(4590)
calls=2 0 
0 2
0 6

fn=(4568)
0 310622

fn=(4334) h_not
0 2
cfn=(3670)
calls=1 0 
0 2
0 7
cob=(1)
cfi=(1)
cfn=(2957)
calls=1 0 
0 874
0 3

fn=(4526)
0 819205

fn=(4552)
0 77928
cfn=(3670)
calls=9741 0 
0 19482
0 119772
cfn=(4592)
calls=8 0 
0 616
0 9568
cfn=(4488)
calls=2382 0 
0 80254
0 138732

fn=(4576) parse_bits
0 17360
cfn=(3670)
calls=3472 0 
0 6944
0 27776
cfn=(4488)
calls=3472 0 
0 115866
0 48578
cfn=(4568)
calls=3467 0 
0 309287
0 25
cfn=(4568)
calls=5 0 
0 445
0 20832
cfn=(4488)
calls=3472 0 
0 116024
0 34730

fn=(4228) system_alloc
0 316
cfn=(3670)
calls=158 0 
0 316
0 790
cob=(3)
cfi=(3)
cfn=(3466)
calls=157 0 
0 30517
cob=(1)
cfi=(1)
cfn=(2957)
calls=1 0 
0 1328
0 474

fn=(4578) parse_many
0 14
cfn=(3670)
calls=2 0 
0 4
0 26
cfn=(4560)
calls=2 0 
0 186
0 46
cfn=(4574)
calls=6 0 
0 138
0 273
cfn=(4507)
calls=7 0 
0 3340647
0 44
cfn=(4488)
calls=2 0 
0 60
0 16
cfn=(4488)
calls=2 0 
0 60
0 20

fn=(4579) parse_many'2
0 14
cfn=(3670)
calls=2 0 
0 4
0 26
cfn=(4560)
calls=2 0 
0 800
0 24217
cfn=(4574)
calls=3459 0 
0 113024
0 138397
cfn=(4507)
calls=3460 0 
0 3040364
0 6946
cfn=(4488)
calls=1 0 
0 30
0 8
cfn=(4488)
calls=1 0 
0 30
0 17

fn=(4214)
0 12
cfn=(3670)
calls=3 0 
0 6
0 21
cfn=(4220) h_token__m
calls=2 0 
0 1506
cob=(1)
cfi=(1)
cfn=(2957)
calls=1 0 
0 4205
0 9

fn=(4254)
0 14
cfn=(3670)
calls=7 0 
0 14
0 49
cfn=(4260)
calls=6 0 
0 2964
cob=(1)
cfi=(1)
cfn=(2957)
calls=1 0 
0 1103
0 21

fn=(4296) h_uint8
0 2
cfn=(3670)
calls=1 0 
0 2
0 7
cfn=(4260)
calls=1 0 
0 494
0 3

fn=(4310) h_int_range__m
0 4
cfn=(3670)
calls=1 0 
0 2
0 14
cfn=(4226)
calls=1 0 
0 230
0 13
cfn=(4226)
calls=1 0 
0 230
0 12

fn=(4322)
0 8
cfn=(3670)
calls=2 0 
0 4
0 14
cfn=(4328)
calls=1 0 
0 491
cob=(1)
cfi=(1)
cfn=(2957)
calls=1 0 
0 1180
0 6

fn=(4340) h_not__m
0 2
cfn=(3670)
calls=1 0 
0 2
0 6
cfn=(4226)
calls=1 0 
0 230
0 10

fn=(4506) h_do_parse
0 5
cfn=(3670)
calls=1 0 
0 2
0 8
cfn=(4488)
calls=1 0 
0 30
0 28
cfn=(4554) parse_sequence
calls=1 0 
0 3358151
0 42
cob=(1)
cfi=(1)
cfn=(2957)
calls=1 0 
0 2454
0 14
cfn=(4488)
calls=1 0 
0 30
0 21
cfn=(4540)
calls=1 0 
0 432
0 6
cfn=(4584)
calls=1 0 
0 25
0 4
cfn=(4518)
calls=1 0 
0 356
0 23
cfn=(4488)
calls=1 0 
0 30
0 8
cob=(1)
cfi=(1)
cfn=(2957)
calls=1 0 
0 687
0 4
cfn=(4488)
calls=1 0 
0 30
0 20
cob=(1)
cfi=(1)
cfn=(2957)
calls=1 0 
0 2572
0 2

fn=(4507)
0 17420
cfn=(3670)
calls=3484 0 
0 6968
0 27872
cfn=(4488)
calls=3484 0 
0 120084
0 97552
cfn=(4644) parse_not
calls=2 0 
0 1479
cfn=(4642)
calls=2 0 
0 7888
cfn=(4640) parse_length_value
calls=2 0 
0 3336017
cfn=(4578)
calls=2 0 
0 3341534
cfn=(4555) parse_sequence'2
calls=1 0 
0 10403
cfn=(4576)
calls=3472 0 
0 697867
cfn=(4562)
calls=3 0 
0 1767
0 121885
cfn=(4512)
calls=7 0 
0 3824
0 41832
cfn=(4488)
calls=3484 0 
0 115612
0 73164
cfn=(4540)
calls=3484 0 
0 1729016
0 6996
cfn=(4584)
calls=6 0 
0 150
cob=(1)
cfi=(1)
cfn=(2957)
calls=1 0 
0 1288
0 28
cfn=(4518)
calls=7 0 
0 3591
0 161
cfn=(4488)
calls=7 0 
0 824
0 56
cfn=(4534) h_slist_push
calls=7 0 
0 357
0 28
cfn=(4488)
calls=7 0 
0 210
0 140
cfn=(4540)
calls=7 0 
0 2468
0 14

fn=(4520)
0 7018
cfn=(3670)
calls=3509 0 
0 7018
0 21054
cfn=(4526)
calls=3508 0 
0 817364
cob=(1)
cfi=(1)
cfn=(2957)
calls=1 0 
0 842
0 10527

fn=(4644)
0 16
cfn=(3670)
calls=2 0 
0 4
0 56
cfn=(4507)
calls=2 0 
0 1269
0 50
cfn=(4488)
calls=2 0 
0 60
0 24

fn=(3668) 0x00005550
0 4
cfn=(3670)
calls=1 0 
0 2
0 9

fn=(4220)
0 9
cfn=(3670)
calls=3 0 
0 6
0 27
cfn=(4226)
calls=2 0 
0 460
cob=(1)
cfi=(1)
cfn=(2957)
calls=1 0 
0 1957
0 12
cfn=(4226)
calls=3 0 
0 690
0 21
cob=(3)
cfi=(3)
cfn=(4240)
calls=2 0 
0 38
cob=(1)
cfi=(1)
cfn=(2957)
calls=1 0 
0 1118
0 21
cfn=(4226)
calls=3 0 
0 690
0 36

fn=(4304) h_int_range
0 4
cfn=(3670)
calls=1 0 
0 2
0 13
cob=(1)
cfi=(1)
cfn=(2957)
calls=1 0 
0 1159
0 3

fn=(4466) h_new_arena
0 5
cfn=(3670)
calls=1 0 
0 2
0 9
cfn=(4226)
calls=1 0 
0 230
0 6
cfn=(4226)
calls=1 0 
0 215
0 10
cob=(1)
cfi=(1)
cfn=(2957)
calls=1 0 
0 1486
0 21

fn=(4478) h_arena_set_except
0 4

fn=(4488)
0 114527
cfn=(3670)
calls=16361 0 
0 32722
0 99177
cfn=(4228)
calls=99 0 
0 19977
0 891
cob=(3)
cfi=(3)
cfn=(4112)
calls=99 0 
0 39321
0 99403
cfn=(4228)
calls=7 0 
0 1627
0 49
cob=(3)
cfi=(3)
cfn=(4112)
calls=7 0 
0 29621
0 146344

fn=(4494)
0 8
cfn=(3670)
calls=2 0 
0 4
0 12
cfn=(4488)
calls=2 0 
0 60
0 22
cfn=(4488)
calls=2 0 
0 60
0 1048

fn=(4226)
0 312
cfn=(3670)
calls=52 0 
0 104
0 208
cfn=(4228)
calls=52 0 
0 12137
0 312

fn=(4278) h_repeat_n__m
0 3
cfn=(3670)
calls=1 0 
0 2
0 7
cfn=(4226)
calls=1 0 
0 230
0 10
cfn=(4226)
calls=1 0 
0 230
0 11

fn=(4458) h_parse__m
0 3
cfn=(3670)
calls=1 0 
0 2
0 41
cfn=(4460)
calls=1 0 
0 3449495
0 3

fn=(4534)
0 40
cfn=(3670)
calls=8 0 
0 16
0 40
cfn=(4488)
calls=8 0 
0 240
0 72

fn=(4554)
0 9
cfn=(3670)
calls=1 0 
0 2
0 8
cob=(1)
cfi=(1)
cfn=(2957)
calls=1 0 
0 867
0 48
cfn=(4574)
calls=5 0 
0 115
cob=(1)
cfi=(1)
cfn=(2957)
calls=1 0 
0 686
0 48
cfn=(4507)
calls=6 0 
0 3356274
0 16
cfn=(4488)
calls=1 0 
0 30
0 8
cfn=(4488)
calls=1 0 
0 30
0 10

fn=(4555)
0 9
cfn=(3670)
calls=1 0 
0 2
0 8
cfn=(4560)
calls=1 0 
0 93
0 27
cfn=(4574)
calls=3 0 
0 69
0 24
cfn=(4507)
calls=3 0 
0 10083
0 10
cfn=(4488)
calls=1 0 
0 30
0 8
cfn=(4488)
calls=1 0 
0 30
0 10

fn=(4640)
0 14
cfn=(3670)
calls=2 0 
0 4
0 10
cfn=(4507)
calls=2 0 
0 12072
0 30
cfn=(4579)
calls=2 0 
0 3323877
0 10

fn=(4452) h_parse
0 4
cfn=(3670)
calls=1 0 
0 2
0 9
cob=(1)
cfi=(1)
cfn=(2957)
calls=1 0 
0 3450170
0 3

fn=(4684)
0 16
cfn=(3670)
calls=2 0 
0 4
0 49716
cfn=(4590)
calls=42 0 
0 42
0 24944
cfn=(4590)
calls=2 0 
0 2
0 12

ob=(4) /lib32/libpthread-2.15.so
fl=(8) ???
fn=(5848) 0x00005490
0 5
cfi=(5) /build/eglibc-FTTGU2/eglibc-2.15/nptl/../nptl/sysdeps/unix/sysv/linux/i386/i686/../i486/sem_post.S
cfn=(2942) 0x00005480
calls=1 160 
0 2
0 10
cob=(1)
cfi=(1)
cfn=(2957)
calls=1 0 
0 1314
0 14

fn=(3154) 0x00005510
0 4
cfi=(5)
cfn=(2942)
calls=1 160 
0 2
0 9

fn=(3162) 0x000109c0
0 5
cfi=(5)
cfn=(2942)
calls=1 160 
0 2
0 8

fl=(5)
fn=(2942)
160 11
+1 11

fl=(4) /build/eglibc-FTTGU2/eglibc-2.15/nptl/nptl-init.c
fn=(2940) __pthread_initialize_minimal
292 4
+14 1
+2 1
-16 2
cfi=(5)
cfn=(2942)
calls=1 160 
* 2
* 1
+16 4
cob=(1)
cfi=(1)
cfn=(2944) 0x000011b0
calls=1 0 
* 2
* 3
+1 2
+1 1
+4 5
+7 1
+6 1
-6 1
+2 1
+4 3
cob=(1)
cfi=(1)
cfn=(2944)
calls=1 0 
* 2
* 1
+32 2
-8 1
+8 7
cob=(1)
cfi=(1)
cfn=(2944)
calls=1 0 
* 2
* 1
+1 1
-3 1
+3 1
+1 2
+1 2
+7 3
+3 1
+1 1
fi=(31) /build/eglibc-FTTGU2/eglibc-2.15/nptl/../nptl/sysdeps/pthread/list.h
61 1
+1 1
fe=(4)
372 1
fi=(31)
63 1
+2 1
fe=(4)
377 2
+8 2
-2 1
+2 1
-2 1
+2 36
+16 1
-14 2
-3 1
+3 3
cfi=(6) /build/eglibc-FTTGU2/eglibc-2.15/nptl/../sysdeps/unix/sysv/linux/i386/sigaction.c
cfn=(2948) __libc_sigaction
calls=1 59 
* 92
+3 1
+3 1
+8 1
-11 1
+1 1
+2 3
cfi=(6)
cfn=(2948)
calls=1 59 
* 92
+8 2
fi=(32) /build/eglibc-FTTGU2/eglibc-2.15/nptl/../sysdeps/unix/sysv/linux/bits/sigset.h
119 2
fe=(4)
401 3
cob=(1)
cfi=(1)
cfn=(2944)
calls=1 0 
* 2
* 1
+5 3
cob=(1)
cfi=(1)
cfn=(2956)
calls=1 0 
* 1480
+3 3
+4 2
+5 1
-5 4
+5 3
cob=(1)
cfi=(1)
cfn=(2956)
calls=1 0 
* 1299
* 2
+12 1
+1 1
-1 1
+1 2
+1 2
+4 4
+1 1
+4 1
cob=(1)
cfi=(1)
cfn=(2956)
calls=1 0 
* 1325
* 3
cob=(1)
cfi=(1)
cfn=(1014) 0x00001220
calls=1 0 
* 6
* 2
+1 1
+6 1
+1 1
-7 1
+4 2
+4 1
-3 2
+3 1
+3 2
+11 1
fi=(7) /build/eglibc-FTTGU2/eglibc-2.15/nptl/../nptl/sysdeps/unix/sysv/linux/i386/smp.h
40 1
fe=(4)
453 1
+3 2
+2 2
+6 3
cob=(1)
cfi=(1)
cfn=(2956)
calls=1 0 
* 1774
fi=(7)
40 2
cob=(1)
cfi=(1)
cfn=(2956)
calls=1 -40 
* 1091
+1 1
-1 2
+15 4
cob=(1)
cfi=(1)
cfn=(2956)
calls=1 -55 
* 1471
* 4
fe=(4)
469 6
-50 3
+4 1
+3 3
-15 3

fl=(10) /build/eglibc-FTTGU2/eglibc-2.15/nptl/pthread_mutex_lock.c
fn=(3424) pthread_mutex_lock
47 12
+3 2
-3 2
cfi=(5)
cfn=(2942)
calls=2 160 
* 4
* 2
+3 2
+1 2
-1 2
+1 4
+3 2
+2 4
+71 2
+3 2
-5 2
+6 12
-67 4
+5 4
+13 6
+2 4
+1 4

fl=(11) /build/eglibc-FTTGU2/eglibc-2.15/nptl/pthread_mutex_unlock.c
fn=(3428) __pthread_mutex_unlock_usercnt
36 10
+1 2
-1 2
cfi=(5)
cfn=(2942)
calls=2 160 
* 4
* 2
+1 4
+1 4
+3 4
+11 4
-5 2
-1 2
+1 2
+5 4
+1 2
+24 10
-28 4
+6 4
+3 6
+3 2
+2 2
-2 8

fn=(3426) pthread_mutex_unlock
290 6
cfn=(3428)
calls=2 36 
* 84

fl=(17) /build/eglibc-FTTGU2/eglibc-2.15/nptl/cleanup_defer_compat.c
fn=(3984) _pthread_cleanup_pop_restore
66 59397
+3 39598
+3 59397
+23 59397
+2 59397

fn=(3982) _pthread_cleanup_push_defer
28 39598
+3 39598
+1 39598
+1 39598
+2 19799
+3 59397
+17 79196
+2 19799
+1 39598

fl=(6)
fn=(2948)
59 2
+37 2
-37 8
cfi=(5)
cfn=(2942)
calls=2 160 
* 4
* 6
+18 2
-18 2
+18 2
+6 2
-2 4
-2 2
+4 2
-4 2
+1 2
+1 2
+2 2
-3 2
+1 66
+2 2
+13 20
cob=(1)
cfi=(1)
cfn=(2944)
calls=2 -96 
* 4
* 6
+6 8
+44 12
-61 4
+3 2
-3 2
+3 6
-1 4

ob=(6) /lib32/librt-2.15.so
fl=(12) ???
fn=(3638) 0x000019d0
0 4
cfn=(3640) 0x00001a07
calls=1 0 
0 2
0 9

fn=(5826) 0x00001950
0 5
cfn=(3640)
calls=1 0 
0 2
0 10
cob=(1)
cfi=(1)
cfn=(2957)
calls=1 0 
0 1314
0 14

fn=(3648) 0x00005450
0 5
cfn=(3640)
calls=1 0 
0 2
0 8

fn=(3640)
0 6

ob=(1)
fl=(1)
fn=(534) 0x00018290
0 8

fn=(590) 0x00019017
0 278

fn=(950) 0x0000fa20
0 32
cfn=(4) 0x0001901b
calls=8 0 
0 16
0 159

fn=(1010) 0x0000f000
0 39
cfn=(4)
calls=13 0 
0 26
0 91
cfn=(1014)
calls=13 0 
0 78
0 91
cfn=(1020) 0x000182f0
calls=13 0 
0 143
0 117
cfn=(1550) 0x0000d4d0
calls=12 0 
0 45313
cfn=(1026) 0x00001400
calls=1 0 
0 2863
0 182

fn=(1510) 0x0000d530
0 23
cfn=(4)
calls=1 0 
0 2
0 1235
cfn=(760) 0x000184d0
calls=12 0 
0 1159
0 144
cfn=(1010)
calls=12 0 
0 46021
0 260
cfn=(336) malloc
calls=6 0 
0 276
0 78
cfn=(346) 0x00018ea0
calls=6 0 
0 171
0 42
cfn=(346)
calls=6 0 
0 171
0 253
cfn=(336)
calls=1 0 
0 46
0 135
cfn=(1360) 0x00018d90
calls=1 0 
0 21
0 705
cfn=(1360)
calls=6 0 
0 140
0 54
cfn=(2052) 0x00018d30
calls=2 0 
0 44
0 53
cfn=(2052)
calls=2 0 
0 42
0 540
cfn=(346)
calls=1 0 
0 34
0 3

fn=(2114) 0x0000f0e0
0 3
cfn=(4)
calls=1 0 
0 2
0 8
cfn=(1014)
calls=1 0 
0 6
0 9
cfn=(2120) 0x00004c20
calls=1 0 
0 18539
0 11

fn=(2862) _dl_allocate_tls_init
0 6
cfn=(4)
calls=1 0 
0 2
0 50
cfn=(650) 0x00018de0
calls=1 0 
0 16
0 6
cfn=(1360)
calls=1 0 
0 33
0 27

fn=(2956)
0 66
cfn=(2958) 0x0000e570
calls=11 0 
0 11245
0 55
cob=(3)
cfi=(3)
cfn=(3762) (below main)
calls=1 0 
0 3713319245
cob=(5)
cfi=(9)
cfn=(3392)
calls=4 0 
0 119228
cob=(3)
cfi=(3)
cfn=(3032) 0x000980b0
calls=1 0 
0 371
cob=(3)
cfi=(3)
cfn=(3020) uname
calls=1 0 
0 10
cob=(3)
cfi=(3)
cfn=(3010) __libc_pthread_init
calls=1 0 
0 448
cob=(3)
cfi=(3)
cfn=(3002) __libc_dl_error_tsd
calls=1 0 
0 7
cob=(3)
cfi=(3)
cfn=(2996) getrlimit
calls=1 0 
0 17
cfn=(2984) _dl_get_tls_static_info
calls=1 0 
0 11

fn=(2957)
0 450
cfn=(2958)
calls=75 0 
0 62162
0 375
cob=(3)
cfi=(3)
cfn=(5884) _mcleanup
calls=1 0 
0 154395
cob=(3)
cfi=(3)
cfn=(5762) __cxa_finalize
calls=5 0 
0 450
cob=(3)
cfi=(3)
cfn=(5602) fclose
calls=1 0 
0 580
cob=(3)
cfi=(3)
cfn=(4730) fseek
calls=1 0 
0 279
cob=(7)
cfi=(13)
cfn=(4691)
calls=1 0 
0 8773
cob=(7)
cfi=(13)
cfn=(4690)
calls=1 0 
0 34106
cob=(7)
cfi=(13)
cfn=(4684)
calls=1 0 
0 603
cob=(7)
cfi=(13)
cfn=(4678)
calls=1 0 
0 20
cob=(3)
cfi=(3)
cfn=(4600)
calls=2 0 
0 88
cob=(7)
cfi=(13)
cfn=(4590)
calls=1 0 
0 1
cob=(7)
cfi=(13)
cfn=(4584)
calls=1 0 
0 661
cob=(7)
cfi=(13)
cfn=(4574)
calls=1 0 
0 23
cob=(7)
cfi=(13)
cfn=(4568)
calls=1 0 
0 89
cob=(7)
cfi=(13)
cfn=(4560)
calls=1 0 
0 93
cob=(7)
cfi=(13)
cfn=(4552)
calls=1 0 
0 35
cob=(7)
cfi=(13)
cfn=(4546)
calls=1 0 
0 35
cob=(7)
cfi=(13)
cfn=(4540)
calls=1 0 
0 1901
cob=(7)
cfi=(13)
cfn=(4534)
calls=1 0 
0 51
cob=(7)
cfi=(13)
cfn=(4526)
calls=1 0 
0 233
cob=(7)
cfi=(13)
cfn=(4518)
calls=1 0 
0 883
cob=(7)
cfi=(13)
cfn=(4512)
calls=1 0 
0 1834
cob=(7)
cfi=(13)
cfn=(4506)
calls=1 0 
0 3364984
cob=(7)
cfi=(13)
cfn=(4500)
calls=1 0 
0 47
cob=(7)
cfi=(13)
cfn=(4494)
calls=1 0 
0 607
cob=(7)
cfi=(13)
cfn=(4488)
calls=1 0 
0 30
cob=(7)
cfi=(13)
cfn=(4478)
calls=1 0 
0 4
cob=(7)
cfi=(13)
cfn=(4466)
calls=1 0 
0 1984
cob=(7)
cfi=(13)
cfn=(4458)
calls=1 0 
0 3449544
cob=(7)
cfi=(13)
cfn=(4452)
calls=1 0 
0 3450188
cob=(3)
cfi=(3)
cfn=(4384)
calls=1 0 
0 1343
cob=(3)
cfi=(3)
cfn=(4358) __printf_chk
calls=1 0 
0 1223
cob=(7)
cfi=(13)
cfn=(4352)
calls=1 0 
0 492
cob=(7)
cfi=(13)
cfn=(4346)
calls=1 0 
0 1162
cob=(7)
cfi=(13)
cfn=(4340)
calls=1 0 
0 250
cob=(7)
cfi=(13)
cfn=(4334)
calls=1 0 
0 888
cob=(7)
cfi=(13)
cfn=(4328)
calls=1 0 
0 491
cob=(7)
cfi=(13)
cfn=(4322)
calls=1 0 
0 1196
cob=(7)
cfi=(13)
cfn=(4316)
calls=1 0 
0 727
cob=(7)
cfi=(13)
cfn=(4310)
calls=1 0 
0 505
cob=(7)
cfi=(13)
cfn=(4304)
calls=1 0 
0 1181
cob=(7)
cfi=(13)
cfn=(4296)
calls=1 0 
0 508
cob=(7)
cfi=(13)
cfn=(4290)
calls=1 0 
0 771
cob=(7)
cfi=(13)
cfn=(4284)
calls=1 0 
0 1457
cob=(7)
cfi=(13)
cfn=(4278)
calls=1 0 
0 493
cob=(7)
cfi=(13)
cfn=(4272)
calls=1 0 
0 1162
cob=(7)
cfi=(13)
cfn=(4266)
calls=1 0 
0 508
cob=(7)
cfi=(13)
cfn=(4260)
calls=1 0 
0 494
cob=(7)
cfi=(13)
cfn=(4254)
calls=1 0 
0 1117
cob=(3)
cfi=(3)
cfn=(4240)
calls=2 0 
0 6781
cob=(7)
cfi=(13)
cfn=(4226)
calls=1 0 
0 1358
cob=(7)
cfi=(13)
cfn=(4220)
calls=1 0 
0 3579
cob=(7)
cfi=(13)
cfn=(4214)
calls=1 0 
0 4221
cob=(3)
cfi=(3)
cfn=(3790)
calls=2 0 
0 32
cob=(3)
cfi=(3)
cfn=(4112)
calls=2 0 
0 496
cob=(3)
cfi=(3)
cfn=(4064)
calls=2 0 
0 161
cob=(3)
cfi=(3)
cfn=(4040)
calls=2 0 
0 2591
cob=(3)
cfi=(3)
cfn=(3466)
calls=3 0 
0 826
cob=(3)
cfi=(3)
cfn=(3900) fopen
calls=1 0 
0 1697
cob=(3)
cfi=(3)
cfn=(3814)
calls=1 0 
0 1365
cob=(3)
cfi=(3)
cfn=(3798)
calls=1 0 
0 39
cob=(3)
cfi=(3)
cfn=(3602) __cxa_atexit
calls=1 0 
0 94
cob=(3)
cfi=(3)
cfn=(3408) calloc
calls=1 0 
0 115505
cob=(3)
cfi=(3)
cfn=(3400) monstartup
calls=1 0 
0 116708

fn=(202) 0x00016450
0 3
cfn=(4)
calls=1 0 
0 2
0 18

fn=(336)
0 84
cfn=(4)
calls=42 0 
0 84
0 252
cfn=(340) __libc_memalign
calls=42 0 
0 1513
0 126

fn=(1132) 0x00005980
0 1116
cfn=(4)
calls=124 0 
0 248
0 1609
cfn=(1138) 0x00017fe0
calls=124 0 
0 2302
0 414
cfn=(1148) 0x00018060
calls=6 0 
0 60
0 60
cfn=(260) 0x00018a50
calls=6 0 
0 186
0 78
cfn=(260)
calls=6 0 
0 216
0 632
cfn=(260)
calls=4 0 
0 156
0 30
cfn=(260)
calls=6 0 
0 204
0 984

fn=(1220) 0x00017f60
0 21
cfn=(4)
calls=7 0 
0 14
0 70

fn=(2052)
0 172

fn=(462) 0x00018690
0 33711

fn=(1006) 0x00000c0b
0 5
cfn=(4)
calls=1 0 
0 2
0 15
cfn=(1010)
calls=1 0 
0 2922
0 12

fn=(1210) 0x00006370
0 36
cfn=(4)
calls=6 0 
0 12
0 42
cfn=(950)
calls=6 0 
0 150
0 42
cfn=(1220)
calls=6 0 
0 90
0 531
cfn=(318) 0x0000ae60
calls=6 0 
0 3033
0 970
cfn=(1920) 0x000116e0
calls=1 0 
0 20
0 843
cfn=(720) 0x000181b0
calls=6 0 
0 138
0 378
cfn=(1360)
calls=6 0 
0 1214
0 216
cfn=(720)
calls=6 0 
0 138
0 1855
cfn=(1450) 0x00018020
calls=1 0 
0 8
0 15
cfn=(1450)
calls=5 0 
0 40
0 72
cfn=(114) 0x0000acd0
calls=6 0 
0 222
0 120
cfn=(384) 0x0000adb0
calls=6 0 
0 372
0 246
cfn=(720)
calls=2 0 
0 46
0 16

fn=(1688) 0x0000ffd0
0 3
cfn=(4)
calls=1 0 
0 2
0 9
cfn=(1138)
calls=1 0 
0 10
0 9
cfn=(1220)
calls=1 0 
0 15
0 8
cfn=(1450)
calls=1 0 
0 8
0 14
cfn=(720)
calls=1 0 
0 23
0 2

fn=(1920)
0 3
cfn=(4)
calls=1 0 
0 2
0 15

fn=(2134) 0x000105c0
0 88
cfn=(4)
calls=8 0 
0 16
0 641
cfn=(1042) 0x00010160
calls=61 0 
0 4694
0 956
cfn=(2162) 0x00010240
calls=6 0 
0 1149
0 306
cfn=(2162)
calls=34 0 
0 6763
0 1113
cfn=(332) calloc
calls=7 0 
0 483
0 2177

fn=(2306) 0x00011b10
0 3
cfn=(4)
calls=1 0 
0 2
0 9
cfn=(340)
calls=1 0 
0 73
0 324
cfn=(2326) 0x00011670
calls=1 0 
0 95
0 8

fn=(2352) 0x00001f10
0 3
cfn=(4)
calls=1 0 
0 2
0 19

fn=(2464) 0x00009e70
0 3000
cfn=(4)
calls=250 0 
0 500
0 39894
cfn=(2484) 0x00009770
calls=250 0 
0 131595
0 8936

fn=(4)
0 3324

fn=(226) 0x00015b20
0 267

fn=(318)
0 35
cfn=(4)
calls=7 0 
0 14
0 56
cfn=(178) 0x00018750
calls=7 0 
0 375
0 70
cfn=(332)
calls=7 0 
0 530
0 126
cfn=(346)
calls=7 0 
0 178
0 396
cfn=(178)
calls=6 0 
0 423
0 198
cfn=(336)
calls=6 0 
0 316
0 60
cfn=(650)
calls=6 0 
0 125
0 406

fn=(528) 0x00015920
0 5
cfn=(4)
calls=1 0 
0 2
0 9
cfn=(534)
calls=1 0 
0 8
0 85

fn=(854) 0x00016310
0 42
cfn=(4)
calls=6 0 
0 12
0 1847

fn=(1550)
0 240
cfn=(1028) 0x00008290
calls=12 0 
0 44989
0 84

fn=(1680) 0x00008ef0
0 20
cfn=(4)
calls=4 0 
0 8
0 104
cfn=(462)
calls=4 0 
0 64
0 36
cfn=(462)
calls=12 0 
0 284
0 100
cfn=(584) 0x00018120
calls=4 0 
0 72
0 438
cfn=(1750) 0x00008d90
calls=25 0 
0 3008
0 186
cfn=(1688)
calls=1 0 
0 103
0 13
cfn=(260)
calls=1 0 
0 40
0 18
cfn=(260)
calls=1 0 
0 43
0 83
cfn=(1750)
calls=6 0 
0 878
0 86
cfn=(1750)
calls=2 0 
0 522
0 192

fn=(2120)
0 4
cfn=(4)
calls=1 0 
0 2
0 6
cfn=(2124) 0x00010a30
calls=1 0 
0 18521
0 6

fn=(340)
0 172
cfn=(4)
calls=43 0 
0 86
0 853
cfn=(720)
calls=4 0 
0 92
0 383

fn=(1100) 0x000054a0
0 12
cfn=(4)
calls=4 0 
0 8
0 24
cfn=(178)
calls=4 0 
0 261
0 12
cfn=(336)
calls=4 0 
0 184
0 32
cfn=(346)
calls=4 0 
0 109
0 20

fn=(1360)
0 1569

fn=(1640) 0x00017f20
0 96
cfn=(4)
calls=32 0 
0 64
0 410

fn=(1750)
0 4408

fn=(2262) 0x00000c9f
0 3
cfn=(4)
calls=1 0 
0 2
0 7
cfn=(332)
calls=1 0 
0 69
0 56
cfn=(2282) 0x000117f0
calls=1 0 
0 85
0 1
cfn=(2306)
calls=1 0 
0 514
0 30

fn=(2282)
0 5
cfn=(4)
calls=1 0 
0 2
0 78

fn=(2326)
0 3
cfn=(4)
calls=1 0 
0 2
0 9
cfn=(332)
calls=1 0 
0 69
0 12

fn=(124) 0x00014b20
0 7
cfn=(4)
calls=1 0 
0 2
0 384
cfn=(164) 0x000163f0
calls=1 0 
0 22
0 7
cfn=(202)
calls=1 0 
0 23
0 14
cfn=(218) 0x00001fe0
calls=1 0 
0 245776
0 76
cfn=(178)
calls=1 0 
0 32
0 2

fn=(260)
0 336
cfn=(4)
calls=28 0 
0 56
0 594

fn=(566) 0x00007de0
0 6
cfn=(4)
calls=1 0 
0 2
0 9
cfn=(570) 0x000151e0
calls=1 0 
0 2430
0 4
cfn=(336)
calls=1 0 
0 46
0 14
cfn=(336)
calls=1 0 
0 86
0 413
cfn=(760)
calls=1 0 
0 272
0 5
cfn=(178)
calls=1 0 
0 126
0 11
cfn=(346)
calls=1 0 
0 33
0 333
cfn=(336)
calls=1 0 
0 46
0 13
cfn=(850) 0x00005500
calls=1 0 
0 1928
0 17

fn=(760)
0 2232

fn=(850)
0 5
cfn=(4)
calls=1 0 
0 2
0 11
cfn=(854)
calls=1 0 
0 329
0 15
cfn=(854)
calls=3 0 
0 656
0 18
cfn=(178)
calls=3 0 
0 155
0 140
cfn=(260)
calls=1 0 
0 40
0 38
cfn=(336)
calls=3 0 
0 138
0 36
cfn=(650)
calls=3 0 
0 56
0 289

fn=(1148)
0 60

fn=(1450)
0 56

fn=(2124)
0 8
cfn=(4)
calls=1 0 
0 2
0 62
cfn=(2134)
calls=8 0 
0 18386
0 63

fn=(2484)
0 2500
cfn=(4)
calls=250 0 
0 500
0 60841
cfn=(1042)
calls=235 0 
0 15134
0 18294
cfn=(2522) 0x000095d0
calls=246 0 
0 33238
0 1088

fn=(2896) 0x00018210
0 9

fn=(5634) 0x0000f620
0 6
cfn=(4)
calls=1 0 
0 2
0 29
cob=(4)
cfi=(10)
cfn=(3424)
calls=1 47 
0 39
0 126
cfn=(5664) 0x0000f3f0
calls=1 0 
0 1240
0 4
cob=(4)
cfi=(11)
cfn=(3426)
calls=1 290 
0 45
0 133
cob=(2)
cfi=(2)
cfn=(5844) 0x06363a60
calls=1 0 
0 1355
cob=(2)
cfi=(2)
cfn=(5824) 0x0634e50c
calls=1 0 
0 1353
cob=(2)
cfi=(2)
cfn=(5804) 0x061960f8
calls=1 0 
0 1353
cob=(2)
cfi=(2)
cfn=(5784) 0x06168c38
calls=1 0 
0 1353
cob=(2)
cfi=(2)
cfn=(5748) 0x06140558
calls=1 0 
0 981
cob=(2)
cfi=(2)
cfn=(5730) 0x0806a34c
calls=1 0 
0 26
0 141

fn=(114)
0 32
cfn=(4)
calls=8 0 
0 16
0 248

fn=(222) 0x00001720
0 6
cfn=(4)
calls=1 0 
0 2
0 18
cfn=(226)
calls=1 0 
0 53
0 4
cfn=(226)
calls=2 0 
0 214
0 166
cfn=(260)
calls=1 0 
0 35
0 9
cfn=(260)
calls=1 0 
0 30
0 9
cfn=(260)
calls=1 0 
0 36
0 9

fn=(384)
0 21
cfn=(4)
calls=7 0 
0 14
0 63
cfn=(388) 0x00001240
calls=7 0 
0 21
0 222
cfn=(398) 0x00001250
calls=6 0 
0 18
0 12
cfn=(398)
calls=1 0 
0 3
0 44

fn=(570)
0 6
cfn=(4)
calls=1 0 
0 2
0 683
cfn=(584)
calls=1 0 
0 18
0 560
cfn=(336)
calls=1 0 
0 46
0 38
cfn=(650)
calls=1 0 
0 16
0 21
cfn=(650)
calls=3 0 
0 48
0 96
cfn=(650)
calls=4 0 
0 60
0 44
cfn=(650)
calls=4 0 
0 60
0 732

fn=(1138)
0 1368
cfn=(590)
calls=118 0 
0 236
0 708

fn=(2162)
0 280
cfn=(4)
calls=40 0 
0 80
0 3816
cfn=(462)
calls=40 0 
0 3296
0 440

fn=(2924) 0x0000f160
0 81
cfn=(4)
calls=9 0 
0 18
0 187
cob=(2)
cfi=(2)
cfn=(3716) 0x061402f8
calls=1 0 
0 661
cob=(2)
cfi=(2)
cfn=(3686) 0x0614e310
calls=1 0 
0 669
cob=(2)
cfi=(2)
cfn=(3656) 0x061795f8
calls=1 0 
0 669
cob=(2)
cfi=(2)
cfn=(3382) 0x0634a4c0
calls=1 0 
0 119873
cob=(3)
cfi=(3)
cfn=(3188) 0x00019360
calls=1 0 
0 163
cob=(2)
cfi=(2)
cfn=(2938) 0x06357190
calls=1 0 
0 8889
0 48
cob=(3)
cfi=(3)
cfn=(3248) 0x00019320
calls=1 0 
0 11
0 14
cob=(3)
cfi=(3)
cfn=(3376) 0x00019030
calls=1 0 
0 12
cob=(3)
cfi=(3)
cfn=(3258) 0x000190a0
calls=1 0 
0 7017
0 68

fn=(5664)
0 7
cfn=(4)
calls=1 0 
0 2
0 24
cfn=(1360)
calls=1 0 
0 21
0 60
cfn=(1360)
calls=6 0 
0 140
0 856
cfn=(2052)
calls=2 0 
0 44
0 34
cfn=(2052)
calls=2 0 
0 42
0 10

fn=(398)
0 21

fn=(982) _dl_debug_state
0 2

fn=(1028)
0 117
cfn=(4)
calls=13 0 
0 26
0 875
cfn=(1042)
calls=57 0 
0 4342
0 241
cfn=(760)
calls=6 0 
0 541
0 18
cfn=(1092) 0x00007a50
calls=1 0 
0 514
0 14
cfn=(1132)
calls=1 0 
0 303
0 141
cfn=(1210)
calls=6 0 
0 10865
0 70
cfn=(178)
calls=5 0 
0 248
0 150
cfn=(1588) 0x00005f30
calls=5 0 
0 19457
0 63
cfn=(1566) 0x00007d70
calls=4 0 
0 70
0 32
cfn=(1680)
calls=4 0 
0 6298
0 76
cfn=(1132)
calls=4 0 
0 1432
0 24
cfn=(1100)
calls=4 0 
0 662
0 143
cfn=(1566)
calls=8 0 
0 122
0 116
cfn=(1566)
calls=5 0 
0 65
0 286
cfn=(462)
calls=21 0 
0 483
0 42

fn=(1588)
0 40
cfn=(4)
calls=5 0 
0 10
0 265
cfn=(650)
calls=14 0 
0 261
0 2458
cfn=(650)
calls=119 0 
0 2002
0 714
cfn=(650)
calls=119 0 
0 2076
0 1904
cfn=(1132)
calls=119 0 
0 6560
0 2293
cfn=(1640)
calls=32 0 
0 570
0 200
cfn=(336)
calls=1 0 
0 46
0 11
cfn=(346)
calls=1 0 
0 33
0 14

fn=(2) 0x00004c80
0 7
cfn=(4)
calls=1 0 
0 2
0 360
cfn=(114)
calls=1 0 
0 37
0 17
cfn=(124)
calls=1 0 
0 246345
0 394

fn=(650)
0 4720

fn=(1014)
0 15
cfn=(590)
calls=15 0 
0 30
0 45

fn=(1026)
0 11
cfn=(1028)
calls=1 0 
0 2847
0 5

fn=(1092)
0 3
cfn=(4)
calls=1 0 
0 2
0 6
cfn=(178)
calls=1 0 
0 118
0 3
cfn=(336)
calls=1 0 
0 46
0 8
cfn=(346)
calls=1 0 
0 39
0 8
cfn=(4)
calls=1 0 
0 2
0 10
cfn=(760)
calls=1 0 
0 260
0 9

fn=(2522)
0 2214
cfn=(4)
calls=246 0 
0 492
0 3991
cfn=(462)
calls=92 0 
0 7459
0 6803
cfn=(462)
calls=142 0 
0 11124
0 1155

fn=(2750) 0x00018250
0 80

fn=(2880) 0x00014f70
0 1

fn=(2914) 0x000011c0
0 2

fn=(0) 0x000011d0
0 2
cfn=(2)
calls=1 0 
0 247162
0 2
cfn=(2914)
calls=1 0 
0 2
0 17
cfn=(2918) 0x0000f2c0
calls=1 0 
0 138508
0 3
cob=(5)
cfi=(9)
cfn=(3756)
calls=1 0 
0 3713320576

fn=(164)
0 5
cfn=(4)
calls=1 0 
0 2
0 15

fn=(178)
0 1861

fn=(346)
0 854

fn=(584)
0 60
cfn=(590)
calls=6 0 
0 12
0 36

fn=(1020)
0 143

fn=(2766) 0x00012310
0 3
cfn=(4)
calls=1 0 
0 2
0 21

fn=(2944)
0 56857

fn=(2984)
0 2
cfn=(4)
calls=1 0 
0 2
0 7

fn=(218)
0 6
cfn=(4)
calls=1 0 
0 2
0 14
cfn=(222)
calls=1 0 
0 591
0 11
cfn=(318)
calls=1 0 
0 275
0 16
cfn=(384)
calls=1 0 
0 46
0 147
cfn=(462)
calls=1 0 
0 9
0 364
cfn=(114)
calls=1 0 
0 37
0 6
cfn=(528)
calls=1 0 
0 109
0 10
cfn=(566)
calls=1 0 
0 5794
0 3
cfn=(950)
calls=1 0 
0 32
0 58
cfn=(982)
calls=1 0 
0 1
0 15
cfn=(584)
calls=1 0 
0 18
0 18
cfn=(1510)
calls=1 0 
0 51652
0 102
cfn=(2114)
calls=1 0 
0 18578
0 9
cfn=(2352)
calls=1 0 
0 24
0 222
cfn=(2386) 0x0000b4a0
calls=7 0 
0 155271
0 28
cfn=(2766)
calls=1 0 
0 26
0 42
cfn=(2862)
calls=1 0 
0 140
0 21
cfn=(2386)
calls=1 0 
0 7072
0 6
cfn=(2880)
calls=1 0 
0 1
0 6
cfn=(950)
calls=1 0 
0 25
0 2
cfn=(982)
calls=1 0 
0 1
0 1
cfn=(2890) 0x00009510
calls=1 0 
0 27
0 67
cfn=(2262)
calls=1 0 
0 767
0 4
cfn=(178)
calls=1 0 
0 123
0 10
cfn=(346)
calls=1 0 
0 32
0 14
cfn=(854)
calls=1 0 
0 890
0 4
cfn=(854)
calls=1 0 
0 26
0 16
cfn=(1006)
calls=1 0 
0 2956
0 29

fn=(332)
0 160
cfn=(4)
calls=16 0 
0 32
0 96
cfn=(336)
calls=16 0 
0 783
0 80

fn=(388)
0 21

fn=(720)
0 437

fn=(1042)
0 2118
cfn=(4)
calls=353 0 
0 706
0 2118
cfn=(462)
calls=353 0 
0 3184
0 5021
cfn=(462)
calls=372 0 
0 7808
0 3215

fn=(1566)
0 257

fn=(2386)
0 64
cfn=(4)
calls=8 0 
0 16
0 8133
cfn=(2744) 0x0000b3b0
calls=8 0 
0 312
0 27055
cfn=(2464)
calls=161 0 
0 116131
0 3945
cfn=(346)
calls=2 0 
0 54
0 2498
cfn=(2464)
calls=3 0 
0 2059
0 1943
cob=(3)
cfi=(3)
cfn=(2706) wcslen
calls=1 0 
0 13
cob=(3)
cfi=(3)
cfn=(2704) memrchr
calls=1 0 
0 14
cob=(3)
cfi=(3)
cfn=(2702) strncasecmp
calls=1 0 
0 15
cob=(3)
cfi=(3)
cfn=(2674) strnlen
calls=1 0 
0 83
0 8

fn=(2744)
0 32
cfn=(4)
calls=8 0 
0 16
0 136
cfn=(2750)
calls=8 0 
0 80
0 48

fn=(2890)
0 2
cfn=(4)
calls=1 0 
0 2
0 10
cfn=(2896)
calls=1 0 
0 9
0 4

fn=(2918)
0 6
cfn=(4)
calls=1 0 
0 2
0 25
cfn=(2924)
calls=1 0 
0 34
0 63
cfn=(2924)
calls=7 0 
0 129410
0 29
cfn=(2924)
calls=1 0 
0 8936
0 3

fn=(2958)
0 774
cfn=(4)
calls=86 0 
0 172
0 4112
cfn=(2464)
calls=86 0 
0 65735
0 2501
cob=(3)
cfi=(3)
cfn=(4598) bcmp
calls=2 0 
0 30
cob=(3)
cfi=(3)
cfn=(4238) memcpy
calls=2 0 
0 30
cob=(3)
cfi=(3)
cfn=(4110) memset
calls=2 0 
0 30
cob=(3)
cfi=(3)
cfn=(3028) strstr
calls=1 0 
0 16
0 7

ob=(2)
fl=(2)
fn=(3772)
0 8
cob=(5)
cfi=(9)
cfn=(3392)
calls=1 0 
0 6
0 1
cob=(5)
cfi=(9)
cfn=(3778)
calls=1 0 
0 8
0 1
cob=(5)
cfi=(9)
cfn=(3784)
calls=1 0 
0 11
0 3

fn=(5844)
0 3
cob=(4)
cfi=(5)
cfn=(2942)
calls=1 160 
0 2
0 2
cob=(4)
cfi=(8)
cfn=(5848)
calls=1 0 
0 1345
0 3

fn=(3382)
0 8
cob=(1)
cfi=(1)
cfn=(2956)
calls=1 0 
0 119830
0 1
cob=(6)
cfi=(12)
cfn=(3638)
calls=1 0 
0 15
0 1
cob=(6)
cfi=(12)
cfn=(3648)
calls=1 0 
0 15
0 3

fn=(3686)
0 8
cob=(1)
cfi=(1)
cfn=(2956)
calls=1 0 
0 626
0 1
cob=(8)
cfi=(14)
cfn=(3698)
calls=1 0 
0 15
0 1
cob=(8)
cfi=(14)
cfn=(3708)
calls=1 0 
0 15
0 3

fn=(5748)
0 5
cob=(9)
cfi=(15)
cfn=(5750)
calls=1 0 
0 973
0 3

fn=(3716)
0 8
cob=(1)
cfi=(1)
cfn=(2956)
calls=1 0 
0 618
0 1
cob=(9)
cfi=(15)
cfn=(3730)
calls=1 0 
0 15
0 1
cob=(9)
cfi=(15)
cfn=(3740)
calls=1 0 
0 15
0 3

fn=(5730)
0 5
cob=(5)
cfi=(9)
cfn=(5732)
calls=1 0 
0 18
0 3

fn=(2938)
0 2
cob=(4)
cfi=(4)
cfn=(2940)
calls=1 292 
0 8853
0 1
cob=(4)
cfi=(8)
cfn=(3154)
calls=1 0 
0 15
0 1
cob=(4)
cfi=(8)
cfn=(3162)
calls=1 0 
0 15
0 2

fn=(3656)
0 8
cob=(1)
cfi=(1)
cfn=(2956)
calls=1 0 
0 626
0 1
cob=(7)
cfi=(13)
cfn=(3668)
calls=1 0 
0 15
0 1
cob=(7)
cfi=(13)
cfn=(3678)
calls=1 0 
0 15
0 3

fn=(5784)
0 5
cob=(8)
cfi=(14)
cfn=(5786)
calls=1 0 
0 1345
0 3

fn=(5804)
0 5
cob=(7)
cfi=(13)
cfn=(5806)
calls=1 0 
0 1345
0 3

fn=(5824)
0 5
cob=(6)
cfi=(12)
cfn=(5826)
calls=1 0 
0 1345
0 3

ob=(3)
fl=(3)
fn=(2674)
0 2
cfn=(2676) 0x0012c7f3
calls=1 0 
0 2
0 4
cfn=(2678) 0x00019890
calls=1 0 
0 69
0 6

fn=(3002)
0 1
cfn=(3004) 0x0012c7f7
calls=1 0 
0 2
0 4

fn=(3004)
0 6

fn=(3242) __ctype_init
0 2
cfn=(2676)
calls=1 0 
0 2
0 18

fn=(3562) sigaction
0 12
cfn=(2676)
calls=2 0 
0 4
0 120
cob=(1)
cfi=(1)
cfn=(2944)
calls=2 0 
0 4
0 96
cfn=(2676)
calls=2 0 
0 4
0 26

fn=(3848) _IO_file_overflow
0 99190
cfn=(2676)
calls=19838 0 
0 39676
0 417377
cfn=(3860) _IO_do_write
calls=13 0 
0 1560
0 118760
cfn=(3860)
calls=19789 0 
0 180656
0 19793
cfn=(3850) _IO_doallocbuf
calls=2 0 
0 217
0 12

fn=(3858) _IO_setb
0 25
cfn=(2676)
calls=5 0 
0 10
0 91
cfn=(5614) munmap
calls=1 0 
0 11
0 1

fn=(3866) 0x0006fa40
0 118806
cfn=(2676)
calls=19801 0 
0 39602
0 257413
cfn=(3874) _IO_file_write
calls=19801 0 
0 1050156
0 574229

fn=(5884)
0 2
cfn=(2676)
calls=1 0 
0 2
0 4
cfn=(3558) moncontrol
calls=1 0 
0 182
0 3
cfn=(5888) 0x000f3df0
calls=1 0 
0 154119
0 3
cfn=(4064)
calls=1 0 
0 77
0 3

fn=(2676)
0 753202

fn=(2704)
0 2
cfn=(2676)
calls=1 0 
0 2
0 10

fn=(3032)
0 14
cfn=(2676)
calls=2 0 
0 4
0 63
cfn=(3048) 0x0007c640
calls=1 0 
0 54
0 31
cfn=(3074) 0x00097ba0
calls=1 0 
0 99
0 9
cfn=(3098) 0x0007dd00
calls=1 0 
0 13
0 33
cfn=(3108) 0x0007db10
calls=1 0 
0 26
0 51

fn=(3204) 0x0007d230
0 76

fn=(3790)
0 80

fn=(3862) _IO_default_xsputn
0 744960
cfn=(2676)
calls=93120 0 
0 186240
0 3645478
cfn=(3848)
calls=12 0 
0 492
0 42595
cfn=(4020) 0x0007e1b0
calls=8507 0 
0 175815
0 739444

fn=(3902) 0x00064db0
0 3
cfn=(2676)
calls=1 0 
0 2
0 6
cob=(1)
cfi=(1)
cfn=(2957)
calls=1 0 
0 1223
0 13
cfn=(3964) 0x00072850
calls=1 0 
0 67
0 4
cfn=(3978) _IO_file_init
calls=1 0 
0 154
0 8
cfn=(3988) _IO_file_fopen
calls=1 0 
0 181
0 4
cfn=(4004) 0x00064d50
calls=1 0 
0 10
0 7

fn=(4040)
0 98980
cfn=(2676)
calls=19796 0 
0 39592
0 554288
cfn=(4042) vfprintf
calls=19796 0 
0 25668359
0 574084

fn=(4042)
0 118782
cfn=(2676)
calls=19797 0 
0 39594
0 554477
cfn=(4056) strchrnul
calls=32 0 
0 550
0 800
cfn=(3846) _IO_file_xsputn
calls=32 0 
0 1083
0 69
cfn=(4064)
calls=1 0 
0 16
0 93
cfn=(4064)
calls=31 0 
0 496
0 96
cfn=(4064)
calls=32 0 
0 512
0 608
cob=(4)
cfi=(17)
cfn=(3984)
calls=32 66 
0 448
0 217893
cfn=(4044) 0x000477a0
calls=19765 0 
0 24552045
0 160408
cob=(4)
cfi=(17)
cfn=(3982)
calls=32 28 
0 608
0 946
cfn=(4056)
calls=50 0 
0 1350
0 650
cfn=(3846)
calls=50 0 
0 6761
0 586
cfn=(3864) __overflow
calls=8 0 
0 496
0 642
cfn=(3846)
calls=22 0 
0 440
0 1617
cfn=(4708) _IO_padn
calls=3 0 
0 324
0 244
cfn=(3846)
calls=20 0 
0 1620
0 214
cfn=(4710) 0x00041ee0
calls=11 0 
0 611
0 205
cfn=(3864)
calls=8 0 
0 496
0 40
cfn=(3864)
calls=8 0 
0 496
0 361
cfn=(4360) 0x00041e20
calls=9 0 
0 394
0 2443

fn=(4043) vfprintf'2
0 118590
cfn=(2676)
calls=19765 0 
0 39530
0 652245
cfn=(4056)
calls=19765 0 
0 344806
0 316240
cfn=(3862)
calls=19765 0 
0 395300
0 98825
cfn=(4064)
calls=19764 0 
0 316224
cob=(1)
cfi=(1)
cfn=(2957)
calls=1 0 
0 737
0 59295
cfn=(4064)
calls=19765 0 
0 316240
0 2302899
cfn=(4056)
calls=36677 0 
0 2889144
0 476801
cfn=(3862)
calls=36677 0 
0 2990927
0 691648
cfn=(3862)
calls=7 0 
0 140
0 158228
cfn=(3862)
calls=19775 0 
0 1118170
0 1211958
cfn=(3862)
calls=16895 0 
0 1029760
0 613353
cfn=(4360)
calls=16895 0 
0 964390
0 547832

fn=(4056)
0 3235850

fn=(4240)
0 134668
cfn=(2676)
calls=3942 0 
0 7884
0 13775
cfn=(2676)
calls=1949 0 
0 3898
0 144656
cfn=(2676)
calls=12619 0 
0 25238
0 85073
cfn=(2676)
calls=9359 0 
0 18718
0 44405
cfn=(2676)
calls=1 0 
0 2
0 3262
cfn=(2676)
calls=3259 0 
0 6518
0 330308
cfn=(2676)
calls=159 0 
0 318
0 387
cfn=(2676)
calls=129 0 
0 258
0 15556472
cfn=(2676)
calls=2908 0 
0 5816
0 189
cfn=(2676)
calls=63 0 
0 126
0 50561331

fn=(4420) read
0 64304
cob=(1)
cfi=(1)
cfn=(2944)
calls=8038 0 
0 16084
0 32152

fn=(5960) 0x00072ae0
0 7
cfn=(2676)
calls=1 0 
0 2
0 90

fn=(3020)
0 4
cob=(1)
cfi=(1)
cfn=(2944)
calls=1 0 
0 2
0 4

fn=(3196) 0x000f13a0
0 5
cfn=(2676)
calls=1 0 
0 2
0 10
cfn=(3204)
calls=1 0 
0 76
0 13

fn=(3258)
0 5
cfn=(2676)
calls=1 0 
0 2
0 10
cfn=(3266) 0x000996e0
calls=1 0 
0 2481
0 4
cfn=(3266)
calls=1 0 
0 2498
0 103
cfn=(3266)
calls=1 0 
0 1911
0 3

fn=(3274) 0x00099400
0 84
cfn=(2676)
calls=12 0 
0 24
0 548
cfn=(3290) bsearch
calls=30 0 
0 5634
0 404

fn=(3800) 0x000f4600
0 90
cfn=(2676)
calls=9 0 
0 18
0 313

fn=(3816) 0x0007cfd0
0 1269

fn=(3928) brk
0 660
cfn=(2676)
calls=132 0 
0 264
0 660
cob=(1)
cfi=(1)
cfn=(2944)
calls=132 0 
0 264
0 1748

fn=(3980) _IO_link_in
0 10
cfn=(2676)
calls=2 0 
0 4
0 79
cob=(4)
cfi=(17)
cfn=(3984)
calls=1 66 
0 14
0 21
cob=(4)
cfi=(17)
cfn=(3982)
calls=1 28 
0 19
0 8

fn=(4708)
0 15
cfn=(2676)
calls=3 0 
0 6
0 78
cfn=(3846)
calls=3 0 
0 201
0 24

fn=(5602)
0 7
cfn=(2676)
calls=1 0 
0 2
0 48
cfn=(5616) _IO_file_finish
calls=1 0 
0 58
0 12
cfn=(4064)
calls=1 0 
0 145
0 12
cfn=(5604) _IO_un_link
calls=1 0 
0 139
0 5
cfn=(5606) _IO_file_close_it
calls=1 0 
0 149
0 3

fn=(5610) _IO_file_close
0 8
cob=(1)
cfi=(1)
cfn=(2944)
calls=1 0 
0 2
0 4

fn=(5888)
0 6
cfn=(2676)
calls=1 0 
0 2
0 5
cfn=(5892) getenv
calls=1 0 
0 307
0 8
cfn=(3992) open
calls=1 0 
0 12
0 14
cfn=(3876) write
calls=1 0 
0 12
0 153679
cob=(1)
cfi=(1)
cfn=(2944)
calls=1 0 
0 2
0 24
cob=(1)
cfi=(1)
cfn=(2944)
calls=1 0 
0 2
0 23
cfn=(3590) __profile_frequency
calls=1 0 
0 7
0 12
cob=(1)
cfi=(1)
cfn=(2944)
calls=1 0 
0 2
0 2

fn=(3248)
0 2
cfn=(2676)
calls=1 0 
0 2
0 7

fn=(3290)
0 2519
cfn=(3292) 0x00099130
calls=196 0 
0 2142
0 973

fn=(3376)
0 3
cfn=(2676)
calls=1 0 
0 2
0 7

fn=(3422) _dl_addr
0 7
cfn=(2676)
calls=1 0 
0 2
0 8
cob=(4)
cfi=(10)
cfn=(3424)
calls=1 47 
0 39
0 53
cob=(4)
cfi=(11)
cfn=(3426)
calls=1 290 
0 45
0 67664

fn=(3558)
0 4
cfn=(2676)
calls=2 0 
0 4
0 19
cfn=(3560) profil
calls=1 0 
0 162
0 13
cfn=(3560)
calls=1 0 
0 364
0 4

fn=(3604) 0x00032d50
0 4
cfn=(2676)
calls=2 0 
0 4
0 10
cfn=(3608) 0x00032bf0
calls=2 0 
0 105
0 30

fn=(4600)
0 15846

fn=(4754) _IO_file_seek
0 5
cfn=(2676)
calls=1 0 
0 2
0 9
cfn=(4756) llseek
calls=1 0 
0 32
0 3

fn=(5562) 0x00074cf0
0 18788
cfn=(2676)
calls=2684 0 
0 5368
0 45628
cfn=(3924) __default_morecore
calls=2684 0 
0 93940
0 32208

fn=(5614)
0 10
cob=(1)
cfi=(1)
cfn=(2944)
calls=2 0 
0 4
0 8

fn=(2702)
0 2
cfn=(2676)
calls=1 0 
0 2
0 11

fn=(3028)
0 2
cfn=(2676)
calls=1 0 
0 2
0 12

fn=(3266)
0 87
cfn=(3274)
calls=3 0 
0 2763
0 21
cfn=(3274)
calls=3 0 
0 2028
0 21
cfn=(3274)
calls=3 0 
0 63
0 21
cfn=(3274)
calls=3 0 
0 1840
0 46

fn=(3292)
0 2142

fn=(3410) 0x00079050
0 3
cfn=(2676)
calls=1 0 
0 2
0 6
cfn=(3414) 0x00078270
calls=1 0 
0 68115
0 5
cfn=(3466)
calls=1 0 
0 1051

fn=(3436) 0x000fee20
0 3
cfn=(2676)
calls=1 0 
0 2
0 11

fn=(3466)
0 16434
cfn=(2676)
calls=5478 0 
0 10956
0 115038
cfn=(3468) 0x00076080
calls=5478 0 
0 1439567
0 120506

fn=(3560)
0 14
cfn=(2676)
calls=2 0 
0 4
0 157
cfn=(3562)
calls=1 0 
0 154
0 4
cfn=(3590)
calls=1 0 
0 7
0 16
cfn=(3592) setitimer
calls=1 0 
0 12
0 18
cfn=(3592)
calls=1 0 
0 12
0 8
cfn=(3562)
calls=1 0 
0 112
0 8

fn=(3814)
0 52
cfn=(2676)
calls=13 0 
0 26
0 78
cfn=(3816)
calls=13 0 
0 1211
0 522
cfn=(3846)
calls=12 0 
0 3168
0 8
cfn=(3846)
calls=1 0 
0 1033
0 431
cfn=(3864)
calls=13 0 
0 2496
0 26

fn=(3854) _IO_file_stat
0 16
cfn=(3856) __fxstat64
calls=2 0 
0 34
0 4

fn=(3864)
0 185
cfn=(2676)
calls=37 0 
0 74
0 370
cfn=(3848)
calls=37 0 
0 3207
0 148

fn=(3874)
0 475224
cfn=(3876)
calls=19801 0 
0 277917
0 297015

fn=(4044)
0 138355
cfn=(2676)
calls=19765 0 
0 39530
0 592950
cfn=(4043)
calls=19765 0 
0 17653282
0 513890
cfn=(3846)
calls=19765 0 
0 4190958
0 316240
cob=(4)
cfi=(17)
cfn=(3984)
calls=19765 66 
0 276710
0 434830
cob=(4)
cfi=(17)
cfn=(3982)
calls=19765 28 
0 375535
0 19765

fn=(4414) _IO_file_underflow
0 20100
cfn=(2676)
calls=4020 0 
0 8040
0 64320
cfn=(4416) _IO_switch_to_get_mode
calls=4020 0 
0 88440
0 60300
cfn=(4418) _IO_file_read
calls=4020 0 
0 96480
0 92454

fn=(4756)
0 9
cfn=(2676)
calls=1 0 
0 2
0 6
cob=(1)
cfi=(1)
cfn=(2944)
calls=1 0 
0 2
0 13

fn=(2706)
0 2
cfn=(2676)
calls=1 0 
0 2
0 9

fn=(3048)
0 54

fn=(3098)
0 13

fn=(3188)
0 3
cfn=(2676)
calls=1 0 
0 2
0 18
cfn=(3196)
calls=1 0 
0 106
0 6
cfn=(3242)
calls=1 0 
0 22
0 6

fn=(3852) _IO_file_doallocate
0 10
cfn=(2676)
calls=2 0 
0 4
0 28
cfn=(3854)
calls=2 0 
0 54
0 42
cfn=(3528) mmap
calls=2 0 
0 50
0 16
cfn=(3858)
calls=2 0 
0 46
0 26

fn=(3978)
0 5
cfn=(2676)
calls=1 0 
0 2
0 6
cfn=(3980)
calls=1 0 
0 136
0 5

fn=(4004)
0 3
cfn=(2676)
calls=1 0 
0 2
0 5

fn=(4412) __underflow
0 20100
cfn=(2676)
calls=4020 0 
0 8040
0 100504
cfn=(4414)
calls=4020 0 
0 430134
0 52254

fn=(4710)
0 55
cfn=(2676)
calls=11 0 
0 22
0 534

fn=(4732) 0x000669a0
0 7
cfn=(2676)
calls=1 0 
0 2
0 29
cfn=(4752) _IO_file_seekoff
calls=1 0 
0 170
0 13

fn=(5604)
0 21
cfn=(2676)
calls=3 0 
0 6
0 77
cob=(4)
cfi=(17)
cfn=(3984)
calls=1 66 
0 14
0 27
cob=(4)
cfi=(17)
cfn=(3982)
calls=1 28 
0 19
0 11

fn=(5616)
0 5
cfn=(2676)
calls=1 0 
0 2
0 6
cfn=(5618) _IO_default_finish
calls=1 0 
0 41
0 4

fn=(5620) exit
0 2
cfn=(2676)
calls=1 0 
0 2
0 8
cfn=(5622) 0x00032a80
calls=1 0 
0 164199

fn=(5622)
0 6
cfn=(2676)
calls=1 0 
0 2
0 54
cob=(1)
cfi=(1)
cfn=(2957)
calls=1 0 
0 155607
cob=(1)
cfi=(1)
cfn=(5634)
calls=1 0 
0 8186
0 13
cfn=(5956) 0x00072d50
calls=1 0 
0 323
0 5
cfn=(6052) _Exit
calls=1 0 
0 3

fn=(5762)
0 25
cfn=(2676)
calls=5 0 
0 10
0 280
cfn=(2676)
calls=5 0 
0 10
0 125

fn=(6024) _IO_file_sync
0 5
cfn=(2676)
calls=1 0 
0 2
0 15

fn=(3548) 0x0007e100
0 46272

fn=(3608)
0 16
cfn=(2676)
calls=2 0 
0 4
0 85

fn=(3968) 0x000727b0
0 27

fn=(4110)
0 4
cfn=(2676)
calls=2 0 
0 4
0 22

fn=(4112)
0 26590
cfn=(2676)
calls=620 0 
0 1240
0 28307
cfn=(2676)
calls=620 0 
0 1240
0 3837
cfn=(2676)
calls=1357 0 
0 2714
0 6785
cfn=(2676)
calls=1357 0 
0 2714
0 177725
cfn=(2676)
calls=1352 0 
0 2704
0 51963
cfn=(2676)
calls=5 0 
0 10
0 14982

fn=(4752)
0 9
cfn=(2676)
calls=1 0 
0 2
0 69
cfn=(4754)
calls=1 0 
0 51
0 39

fn=(4910) 0x00075590
0 740
cfn=(2676)
calls=74 0 
0 148
0 5698

fn=(2678)
0 4
cfn=(2676)
calls=1 0 
0 2
0 63

fn=(2996)
0 3
cfn=(2676)
calls=1 0 
0 2
0 5
cob=(1)
cfi=(1)
cfn=(2944)
calls=1 0 
0 2
0 5

fn=(3400)
0 5
cfn=(2676)
calls=1 0 
0 2
0 31
cob=(1)
cfi=(1)
cfn=(2957)
calls=1 0 
0 116243
0 14
cfn=(3558)
calls=1 0 
0 388
0 25

fn=(3528)
0 1248
cob=(1)
cfi=(1)
cfn=(2944)
calls=78 0 
0 156
0 546

fn=(3762)
0 5
cfn=(2676)
calls=1 0 
0 2
0 15
cfn=(3602)
calls=1 0 
0 95
0 14
cob=(5)
cfi=(9)
cfn=(3770)
calls=1 0 
0 61
0 9
cfn=(3790)
calls=1 0 
0 16
0 16
cob=(5)
cfi=(16)
cfn=(3792)
calls=1 104 
0 3713154797
0 2
cfn=(5620)
calls=1 0 
0 164211
0 2

fn=(3846)
0 119430
cfn=(2676)
calls=19905 0 
0 39810
0 455940
cfn=(3848)
calls=19789 0 
0 873542
0 336515
cfn=(3862)
calls=1 0 
0 727
0 164551
cfn=(4020)
calls=10 0 
0 244
0 98855
cfn=(3866)
calls=19765 0 
0 2036496
0 79154

fn=(3850)
0 15
cfn=(2676)
calls=3 0 
0 6
0 37
cfn=(3852)
calls=2 0 
0 276
0 11
cfn=(3858)
calls=1 0 
0 23
0 4

fn=(3900)
0 4
cfn=(2676)
calls=1 0 
0 2
0 6
cfn=(3902)
calls=1 0 
0 1682
0 3

fn=(3964)
0 4
cfn=(2676)
calls=1 0 
0 2
0 10
cfn=(3968)
calls=1 0 
0 27
0 24

fn=(3988)
0 8
cfn=(2676)
calls=1 0 
0 2
0 47
cfn=(3990) _IO_file_open
calls=1 0 
0 80
0 9
cfn=(3032)
calls=1 0 
0 26
0 9

fn=(4360)
0 101424
cfn=(2676)
calls=16904 0 
0 33808
0 829552

fn=(4370) 0x000f4750
0 2730
cfn=(2676)
calls=1365 0 
0 2730
0 24546

fn=(4730)
0 5
cfn=(2676)
calls=1 0 
0 2
0 27
cfn=(4732)
calls=1 0 
0 221
0 24

fn=(5892)
0 6
cfn=(2676)
calls=1 0 
0 2
0 4
cfn=(3816)
calls=1 0 
0 58
0 237

fn=(5956)
0 5
cfn=(2676)
calls=1 0 
0 2
0 4
cfn=(5960)
calls=1 0 
0 99
0 51
cfn=(6018) _IO_file_setbuf
calls=1 0 
0 116
0 46

fn=(3010)
0 4
cfn=(2676)
calls=1 0 
0 2
0 8
cfn=(3012) __register_atfork
calls=1 0 
0 49
0 385

fn=(3012)
0 5
cfn=(2676)
calls=1 0 
0 2
0 42

fn=(3468)
0 38346
cfn=(2676)
calls=5478 0 
0 10956
0 168572
cfn=(3490) 0x00075020
calls=619 0 
0 128101
0 1067919
cfn=(3924)
calls=131 0 
0 9233
0 4069
cfn=(3924)
calls=1 0 
0 35
0 1722
cfn=(4910)
calls=74 0 
0 6586
0 682
cfn=(3528)
calls=2 0 
0 50
0 632
cfn=(3528)
calls=74 0 
0 1850
0 814

fn=(3490)
0 4340
cfn=(2676)
calls=620 0 
0 1240
0 122727

fn=(3602)
0 4
cfn=(2676)
calls=2 0 
0 4
0 22
cfn=(3604)
calls=2 0 
0 153
0 6

fn=(3876)
0 158414
cob=(1)
cfi=(1)
cfn=(2944)
calls=19802 0 
0 40307
0 79208

fn=(3926) sbrk
0 8448
cfn=(2676)
calls=2816 0 
0 5632
0 40076
cfn=(3928)
calls=131 0 
0 3571
0 20108
cfn=(3928)
calls=1 0 
0 25
0 4

fn=(3992)
0 14
cob=(1)
cfi=(1)
cfn=(2944)
calls=2 0 
0 4
0 8

fn=(4238)
0 4
cfn=(2676)
calls=2 0 
0 4
0 22

fn=(4384)
0 38871
cfn=(2676)
calls=5553 0 
0 11106
0 161037
cfn=(4386) _IO_sgetn
calls=5553 0 
0 5648435
0 133272

fn=(4430) 0x0007e7c0
0 151229

fn=(5606)
0 5
cfn=(2676)
calls=1 0 
0 2
0 13
cfn=(5608) _IO_unsave_markers
calls=1 0 
0 16
0 10
cfn=(3858)
calls=1 0 
0 44
0 8
cfn=(5604)
calls=1 0 
0 18
0 17
cfn=(5610)
calls=1 0 
0 14
0 2

fn=(6018)
0 4
cfn=(2676)
calls=1 0 
0 2
0 8
cfn=(6020) 0x00072600
calls=1 0 
0 88
0 14

fn=(3074)
0 99

fn=(3108)
0 26

fn=(3408)
0 6
cfn=(2676)
calls=1 0 
0 2
0 26
cfn=(3410)
calls=1 0 
0 69182
0 8
cfn=(3548)
calls=1 0 
0 46272
0 9

fn=(3414)
0 5
cfn=(2676)
calls=1 0 
0 2
0 25
cfn=(3436)
calls=1 0 
0 16
0 238
cfn=(3422)
calls=1 0 
0 67818
0 11

fn=(3590)
0 2
cfn=(3004)
calls=2 0 
0 4
0 8

fn=(3798)
0 54
cfn=(3800)
calls=9 0 
0 421
0 36

fn=(3856)
0 6
cfn=(2676)
calls=2 0 
0 4
0 10
cob=(1)
cfi=(1)
cfn=(2944)
calls=2 0 
0 4
0 10

fn=(3860)
0 118956
cfn=(3866)
calls=36 0 
0 3710
0 59550

fn=(3924)
0 11264
cfn=(3926)
calls=2816 0 
0 77864
0 14080

fn=(4020)
0 4327817

fn=(4064)
0 4
cfn=(2676)
calls=1 0 
0 2
0 23
cfn=(5614)
calls=1 0 
0 11
0 53195
cfn=(2676)
calls=5319 0 
0 10638
0 561045
cfn=(3490)
calls=1 0 
0 206
0 29525
cfn=(5562)
calls=2684 0 
0 195932
0 92543
cfn=(2676)
calls=44914 0 
0 89828
0 581536

fn=(4386)
0 55530
cfn=(4388) 0x00071600
calls=5553 0 
0 5581799
0 11106

fn=(4418)
0 80380
cfn=(4420)
calls=8038 0 
0 112540

fn=(4598)
0 4
cfn=(2676)
calls=2 0 
0 4
0 22

fn=(5608)
0 4
cfn=(2676)
calls=1 0 
0 2
0 10

fn=(6020)
0 10
cfn=(2676)
calls=1 0 
0 2
0 4
cfn=(6024)
calls=1 0 
0 22
0 12
cfn=(3858)
calls=1 0 
0 25
0 13

fn=(6052)
0 3

fn=(3592)
0 12
cob=(1)
cfi=(1)
cfn=(2944)
calls=2 0 
0 4
0 8

fn=(3990)
0 8
cfn=(2676)
calls=1 0 
0 2
0 15
cfn=(3992)
calls=1 0 
0 14
0 15
cfn=(3980)
calls=1 0 
0 19
0 7

fn=(4358)
0 3
cfn=(2676)
calls=1 0 
0 2
0 36
cfn=(4042)
calls=1 0 
0 1155
0 27

fn=(4388)
0 38871
cfn=(2676)
calls=5553 0 
0 11106
0 264131
cfn=(4418)
calls=4018 0 
0 96440
0 146284
cfn=(4430)
calls=5051 0 
0 151229
0 74616
cfn=(4020)
calls=4018 0 
0 4151758
0 28130
cfn=(4412)
calls=4020 0 
0 611032
0 8046
cfn=(3850)
calls=1 0 
0 155
0 1

fn=(4416)
0 88440

fn=(5618)
0 5
cfn=(2676)
calls=1 0 
0 2
0 12
cfn=(5604)
calls=1 0 
0 18
0 4

totals: 3713736278
